.Xil/Vivado-28464-LAPTOP-PFVE9KOE/hw_ila_data_1/zip_work/waveform.vcd
$date
        2025-May-05 03:04:20
$end
$version
        Vivado v2018.3 (64-bit)
$end
$timescale
        1ps
$end
$scope module dut $end
$var reg 1 " u_led_twinkle/led $end
$var reg 26 # u_led_twinkle/cnt [25:0] $end
$var reg 1 = _TRIGGER $end
$var reg 1 > _WINDOW $end
$var reg 1 ? _GAP $end
$upscope $end
$enddefinitions $end
#0
$dumpvars
1"
b1101110011000111110101010 #
0=
1>
0?
$end
#1
b1101110011000111110101011 #
#2
b1101110011000111110101100 #
#3
b1101110011000111110101101 #
#4
b1101110011000111110101110 #
#5
b1101110011000111110101111 #
#6
b1101110011000111110110000 #
#7
b1101110011000111110110001 #
#8
b1101110011000111110110010 #
#9
b1101110011000111110110011 #
#10
b1101110011000111110110100 #
#11
b1101110011000111110110101 #
#12
b1101110011000111110110110 #
#13
b1101110011000111110110111 #
#14
b1101110011000111110111000 #
#15
b1101110011000111110111001 #
#16
b1101110011000111110111010 #
#17
b1101110011000111110111011 #
#18
b1101110011000111110111100 #
#19
b1101110011000111110111101 #
#20
b1101110011000111110111110 #
#21
b1101110011000111110111111 #
#22
b1101110011000111111000000 #
#23
b1101110011000111111000001 #
#24
b1101110011000111111000010 #
#25
b1101110011000111111000011 #
#26
b1101110011000111111000100 #
#27
b1101110011000111111000101 #
#28
b1101110011000111111000110 #
#29
b1101110011000111111000111 #
#30
b1101110011000111111001000 #
#31
b1101110011000111111001001 #
#32
b1101110011000111111001010 #
#33
b1101110011000111111001011 #
#34
b1101110011000111111001100 #
#35
b1101110011000111111001101 #
#36
b1101110011000111111001110 #
#37
b1101110011000111111001111 #
#38
b1101110011000111111010000 #
#39
b1101110011000111111010001 #
#40
b1101110011000111111010010 #
#41
b1101110011000111111010011 #
#42
b1101110011000111111010100 #
#43
b1101110011000111111010101 #
#44
b1101110011000111111010110 #
#45
b1101110011000111111010111 #
#46
b1101110011000111111011000 #
#47
b1101110011000111111011001 #
#48
b1101110011000111111011010 #
#49
b1101110011000111111011011 #
#50
b1101110011000111111011100 #
#51
b1101110011000111111011101 #
#52
b1101110011000111111011110 #
#53
b1101110011000111111011111 #
#54
b1101110011000111111100000 #
#55
b1101110011000111111100001 #
#56
b1101110011000111111100010 #
#57
b1101110011000111111100011 #
#58
b1101110011000111111100100 #
#59
b1101110011000111111100101 #
#60
b1101110011000111111100110 #
#61
b1101110011000111111100111 #
#62
b1101110011000111111101000 #
#63
b1101110011000111111101001 #
#64
b1101110011000111111101010 #
#65
b1101110011000111111101011 #
#66
b1101110011000111111101100 #
#67
b1101110011000111111101101 #
#68
b1101110011000111111101110 #
#69
b1101110011000111111101111 #
#70
b1101110011000111111110000 #
#71
b1101110011000111111110001 #
#72
b1101110011000111111110010 #
#73
b1101110011000111111110011 #
#74
b1101110011000111111110100 #
#75
b1101110011000111111110101 #
#76
b1101110011000111111110110 #
#77
b1101110011000111111110111 #
#78
b1101110011000111111111000 #
#79
b1101110011000111111111001 #
#80
b1101110011000111111111010 #
#81
b1101110011000111111111011 #
#82
b1101110011000111111111100 #
#83
b1101110011000111111111101 #
#84
b1101110011000111111111110 #
#85
b1101110011000111111111111 #
#86
b1101110011001000000000000 #
#87
b1101110011001000000000001 #
#88
b1101110011001000000000010 #
#89
b1101110011001000000000011 #
#90
b1101110011001000000000100 #
#91
b1101110011001000000000101 #
#92
b1101110011001000000000110 #
#93
b1101110011001000000000111 #
#94
b1101110011001000000001000 #
#95
b1101110011001000000001001 #
#96
b1101110011001000000001010 #
#97
b1101110011001000000001011 #
#98
b1101110011001000000001100 #
#99
b1101110011001000000001101 #
#100
b1101110011001000000001110 #
#101
b1101110011001000000001111 #
#102
b1101110011001000000010000 #
#103
b1101110011001000000010001 #
#104
b1101110011001000000010010 #
#105
b1101110011001000000010011 #
#106
b1101110011001000000010100 #
#107
b1101110011001000000010101 #
#108
b1101110011001000000010110 #
#109
b1101110011001000000010111 #
#110
b1101110011001000000011000 #
#111
b1101110011001000000011001 #
#112
b1101110011001000000011010 #
#113
b1101110011001000000011011 #
#114
b1101110011001000000011100 #
#115
b1101110011001000000011101 #
#116
b1101110011001000000011110 #
#117
b1101110011001000000011111 #
#118
b1101110011001000000100000 #
#119
b1101110011001000000100001 #
#120
b1101110011001000000100010 #
#121
b1101110011001000000100011 #
#122
b1101110011001000000100100 #
#123
b1101110011001000000100101 #
#124
b1101110011001000000100110 #
#125
b1101110011001000000100111 #
#126
b1101110011001000000101000 #
#127
b1101110011001000000101001 #
#128
b1101110011001000000101010 #
#129
b1101110011001000000101011 #
#130
b1101110011001000000101100 #
#131
b1101110011001000000101101 #
#132
b1101110011001000000101110 #
#133
b1101110011001000000101111 #
#134
b1101110011001000000110000 #
#135
b1101110011001000000110001 #
#136
b1101110011001000000110010 #
#137
b1101110011001000000110011 #
#138
b1101110011001000000110100 #
#139
b1101110011001000000110101 #
#140
b1101110011001000000110110 #
#141
b1101110011001000000110111 #
#142
b1101110011001000000111000 #
#143
b1101110011001000000111001 #
#144
b1101110011001000000111010 #
#145
b1101110011001000000111011 #
#146
b1101110011001000000111100 #
#147
b1101110011001000000111101 #
#148
b1101110011001000000111110 #
#149
b1101110011001000000111111 #
#150
b1101110011001000001000000 #
#151
b1101110011001000001000001 #
#152
b1101110011001000001000010 #
#153
b1101110011001000001000011 #
#154
b1101110011001000001000100 #
#155
b1101110011001000001000101 #
#156
b1101110011001000001000110 #
#157
b1101110011001000001000111 #
#158
b1101110011001000001001000 #
#159
b1101110011001000001001001 #
#160
b1101110011001000001001010 #
#161
b1101110011001000001001011 #
#162
b1101110011001000001001100 #
#163
b1101110011001000001001101 #
#164
b1101110011001000001001110 #
#165
b1101110011001000001001111 #
#166
b1101110011001000001010000 #
#167
b1101110011001000001010001 #
#168
b1101110011001000001010010 #
#169
b1101110011001000001010011 #
#170
b1101110011001000001010100 #
#171
b1101110011001000001010101 #
#172
b1101110011001000001010110 #
#173
b1101110011001000001010111 #
#174
b1101110011001000001011000 #
#175
b1101110011001000001011001 #
#176
b1101110011001000001011010 #
#177
b1101110011001000001011011 #
#178
b1101110011001000001011100 #
#179
b1101110011001000001011101 #
#180
b1101110011001000001011110 #
#181
b1101110011001000001011111 #
#182
b1101110011001000001100000 #
#183
b1101110011001000001100001 #
#184
b1101110011001000001100010 #
#185
b1101110011001000001100011 #
#186
b1101110011001000001100100 #
#187
b1101110011001000001100101 #
#188
b1101110011001000001100110 #
#189
b1101110011001000001100111 #
#190
b1101110011001000001101000 #
#191
b1101110011001000001101001 #
#192
b1101110011001000001101010 #
#193
b1101110011001000001101011 #
#194
b1101110011001000001101100 #
#195
b1101110011001000001101101 #
#196
b1101110011001000001101110 #
#197
b1101110011001000001101111 #
#198
b1101110011001000001110000 #
#199
b1101110011001000001110001 #
#200
b1101110011001000001110010 #
#201
b1101110011001000001110011 #
#202
b1101110011001000001110100 #
#203
b1101110011001000001110101 #
#204
b1101110011001000001110110 #
#205
b1101110011001000001110111 #
#206
b1101110011001000001111000 #
#207
b1101110011001000001111001 #
#208
b1101110011001000001111010 #
#209
b1101110011001000001111011 #
#210
b1101110011001000001111100 #
#211
b1101110011001000001111101 #
#212
b1101110011001000001111110 #
#213
b1101110011001000001111111 #
#214
b1101110011001000010000000 #
#215
b1101110011001000010000001 #
#216
b1101110011001000010000010 #
#217
b1101110011001000010000011 #
#218
b1101110011001000010000100 #
#219
b1101110011001000010000101 #
#220
b1101110011001000010000110 #
#221
b1101110011001000010000111 #
#222
b1101110011001000010001000 #
#223
b1101110011001000010001001 #
#224
b1101110011001000010001010 #
#225
b1101110011001000010001011 #
#226
b1101110011001000010001100 #
#227
b1101110011001000010001101 #
#228
b1101110011001000010001110 #
#229
b1101110011001000010001111 #
#230
b1101110011001000010010000 #
#231
b1101110011001000010010001 #
#232
b1101110011001000010010010 #
#233
b1101110011001000010010011 #
#234
b1101110011001000010010100 #
#235
b1101110011001000010010101 #
#236
b1101110011001000010010110 #
#237
b1101110011001000010010111 #
#238
b1101110011001000010011000 #
#239
b1101110011001000010011001 #
#240
b1101110011001000010011010 #
#241
b1101110011001000010011011 #
#242
b1101110011001000010011100 #
#243
b1101110011001000010011101 #
#244
b1101110011001000010011110 #
#245
b1101110011001000010011111 #
#246
b1101110011001000010100000 #
#247
b1101110011001000010100001 #
#248
b1101110011001000010100010 #
#249
b1101110011001000010100011 #
#250
b1101110011001000010100100 #
#251
b1101110011001000010100101 #
#252
b1101110011001000010100110 #
#253
b1101110011001000010100111 #
#254
b1101110011001000010101000 #
#255
b1101110011001000010101001 #
#256
b1101110011001000010101010 #
#257
b1101110011001000010101011 #
#258
b1101110011001000010101100 #
#259
b1101110011001000010101101 #
#260
b1101110011001000010101110 #
#261
b1101110011001000010101111 #
#262
b1101110011001000010110000 #
#263
b1101110011001000010110001 #
#264
b1101110011001000010110010 #
#265
b1101110011001000010110011 #
#266
b1101110011001000010110100 #
#267
b1101110011001000010110101 #
#268
b1101110011001000010110110 #
#269
b1101110011001000010110111 #
#270
b1101110011001000010111000 #
#271
b1101110011001000010111001 #
#272
b1101110011001000010111010 #
#273
b1101110011001000010111011 #
#274
b1101110011001000010111100 #
#275
b1101110011001000010111101 #
#276
b1101110011001000010111110 #
#277
b1101110011001000010111111 #
#278
b1101110011001000011000000 #
#279
b1101110011001000011000001 #
#280
b1101110011001000011000010 #
#281
b1101110011001000011000011 #
#282
b1101110011001000011000100 #
#283
b1101110011001000011000101 #
#284
b1101110011001000011000110 #
#285
b1101110011001000011000111 #
#286
b1101110011001000011001000 #
#287
b1101110011001000011001001 #
#288
b1101110011001000011001010 #
#289
b1101110011001000011001011 #
#290
b1101110011001000011001100 #
#291
b1101110011001000011001101 #
#292
b1101110011001000011001110 #
#293
b1101110011001000011001111 #
#294
b1101110011001000011010000 #
#295
b1101110011001000011010001 #
#296
b1101110011001000011010010 #
#297
b1101110011001000011010011 #
#298
b1101110011001000011010100 #
#299
b1101110011001000011010101 #
#300
b1101110011001000011010110 #
#301
b1101110011001000011010111 #
#302
b1101110011001000011011000 #
#303
b1101110011001000011011001 #
#304
b1101110011001000011011010 #
#305
b1101110011001000011011011 #
#306
b1101110011001000011011100 #
#307
b1101110011001000011011101 #
#308
b1101110011001000011011110 #
#309
b1101110011001000011011111 #
#310
b1101110011001000011100000 #
#311
b1101110011001000011100001 #
#312
b1101110011001000011100010 #
#313
b1101110011001000011100011 #
#314
b1101110011001000011100100 #
#315
b1101110011001000011100101 #
#316
b1101110011001000011100110 #
#317
b1101110011001000011100111 #
#318
b1101110011001000011101000 #
#319
b1101110011001000011101001 #
#320
b1101110011001000011101010 #
#321
b1101110011001000011101011 #
#322
b1101110011001000011101100 #
#323
b1101110011001000011101101 #
#324
b1101110011001000011101110 #
#325
b1101110011001000011101111 #
#326
b1101110011001000011110000 #
#327
b1101110011001000011110001 #
#328
b1101110011001000011110010 #
#329
b1101110011001000011110011 #
#330
b1101110011001000011110100 #
#331
b1101110011001000011110101 #
#332
b1101110011001000011110110 #
#333
b1101110011001000011110111 #
#334
b1101110011001000011111000 #
#335
b1101110011001000011111001 #
#336
b1101110011001000011111010 #
#337
b1101110011001000011111011 #
#338
b1101110011001000011111100 #
#339
b1101110011001000011111101 #
#340
b1101110011001000011111110 #
#341
b1101110011001000011111111 #
#342
b1101110011001000100000000 #
#343
b1101110011001000100000001 #
#344
b1101110011001000100000010 #
#345
b1101110011001000100000011 #
#346
b1101110011001000100000100 #
#347
b1101110011001000100000101 #
#348
b1101110011001000100000110 #
#349
b1101110011001000100000111 #
#350
b1101110011001000100001000 #
#351
b1101110011001000100001001 #
#352
b1101110011001000100001010 #
#353
b1101110011001000100001011 #
#354
b1101110011001000100001100 #
#355
b1101110011001000100001101 #
#356
b1101110011001000100001110 #
#357
b1101110011001000100001111 #
#358
b1101110011001000100010000 #
#359
b1101110011001000100010001 #
#360
b1101110011001000100010010 #
#361
b1101110011001000100010011 #
#362
b1101110011001000100010100 #
#363
b1101110011001000100010101 #
#364
b1101110011001000100010110 #
#365
b1101110011001000100010111 #
#366
b1101110011001000100011000 #
#367
b1101110011001000100011001 #
#368
b1101110011001000100011010 #
#369
b1101110011001000100011011 #
#370
b1101110011001000100011100 #
#371
b1101110011001000100011101 #
#372
b1101110011001000100011110 #
#373
b1101110011001000100011111 #
#374
b1101110011001000100100000 #
#375
b1101110011001000100100001 #
#376
b1101110011001000100100010 #
#377
b1101110011001000100100011 #
#378
b1101110011001000100100100 #
#379
b1101110011001000100100101 #
#380
b1101110011001000100100110 #
#381
b1101110011001000100100111 #
#382
b1101110011001000100101000 #
#383
b1101110011001000100101001 #
#384
b1101110011001000100101010 #
#385
b1101110011001000100101011 #
#386
b1101110011001000100101100 #
#387
b1101110011001000100101101 #
#388
b1101110011001000100101110 #
#389
b1101110011001000100101111 #
#390
b1101110011001000100110000 #
#391
b1101110011001000100110001 #
#392
b1101110011001000100110010 #
#393
b1101110011001000100110011 #
#394
b1101110011001000100110100 #
#395
b1101110011001000100110101 #
#396
b1101110011001000100110110 #
#397
b1101110011001000100110111 #
#398
b1101110011001000100111000 #
#399
b1101110011001000100111001 #
#400
b1101110011001000100111010 #
#401
b1101110011001000100111011 #
#402
b1101110011001000100111100 #
#403
b1101110011001000100111101 #
#404
b1101110011001000100111110 #
#405
b1101110011001000100111111 #
#406
b1101110011001000101000000 #
#407
b1101110011001000101000001 #
#408
b1101110011001000101000010 #
#409
b1101110011001000101000011 #
#410
b1101110011001000101000100 #
#411
b1101110011001000101000101 #
#412
b1101110011001000101000110 #
#413
b1101110011001000101000111 #
#414
b1101110011001000101001000 #
#415
b1101110011001000101001001 #
#416
b1101110011001000101001010 #
#417
b1101110011001000101001011 #
#418
b1101110011001000101001100 #
#419
b1101110011001000101001101 #
#420
b1101110011001000101001110 #
#421
b1101110011001000101001111 #
#422
b1101110011001000101010000 #
#423
b1101110011001000101010001 #
#424
b1101110011001000101010010 #
#425
b1101110011001000101010011 #
#426
b1101110011001000101010100 #
#427
b1101110011001000101010101 #
#428
b1101110011001000101010110 #
#429
b1101110011001000101010111 #
#430
b1101110011001000101011000 #
#431
b1101110011001000101011001 #
#432
b1101110011001000101011010 #
#433
b1101110011001000101011011 #
#434
b1101110011001000101011100 #
#435
b1101110011001000101011101 #
#436
b1101110011001000101011110 #
#437
b1101110011001000101011111 #
#438
b1101110011001000101100000 #
#439
b1101110011001000101100001 #
#440
b1101110011001000101100010 #
#441
b1101110011001000101100011 #
#442
b1101110011001000101100100 #
#443
b1101110011001000101100101 #
#444
b1101110011001000101100110 #
#445
b1101110011001000101100111 #
#446
b1101110011001000101101000 #
#447
b1101110011001000101101001 #
#448
b1101110011001000101101010 #
#449
b1101110011001000101101011 #
#450
b1101110011001000101101100 #
#451
b1101110011001000101101101 #
#452
b1101110011001000101101110 #
#453
b1101110011001000101101111 #
#454
b1101110011001000101110000 #
#455
b1101110011001000101110001 #
#456
b1101110011001000101110010 #
#457
b1101110011001000101110011 #
#458
b1101110011001000101110100 #
#459
b1101110011001000101110101 #
#460
b1101110011001000101110110 #
#461
b1101110011001000101110111 #
#462
b1101110011001000101111000 #
#463
b1101110011001000101111001 #
#464
b1101110011001000101111010 #
#465
b1101110011001000101111011 #
#466
b1101110011001000101111100 #
#467
b1101110011001000101111101 #
#468
b1101110011001000101111110 #
#469
b1101110011001000101111111 #
#470
b1101110011001000110000000 #
#471
b1101110011001000110000001 #
#472
b1101110011001000110000010 #
#473
b1101110011001000110000011 #
#474
b1101110011001000110000100 #
#475
b1101110011001000110000101 #
#476
b1101110011001000110000110 #
#477
b1101110011001000110000111 #
#478
b1101110011001000110001000 #
#479
b1101110011001000110001001 #
#480
b1101110011001000110001010 #
#481
b1101110011001000110001011 #
#482
b1101110011001000110001100 #
#483
b1101110011001000110001101 #
#484
b1101110011001000110001110 #
#485
b1101110011001000110001111 #
#486
b1101110011001000110010000 #
#487
b1101110011001000110010001 #
#488
b1101110011001000110010010 #
#489
b1101110011001000110010011 #
#490
b1101110011001000110010100 #
#491
b1101110011001000110010101 #
#492
b1101110011001000110010110 #
#493
b1101110011001000110010111 #
#494
b1101110011001000110011000 #
#495
b1101110011001000110011001 #
#496
b1101110011001000110011010 #
#497
b1101110011001000110011011 #
#498
b1101110011001000110011100 #
#499
b1101110011001000110011101 #
#500
b1101110011001000110011110 #
#501
b1101110011001000110011111 #
#502
b1101110011001000110100000 #
#503
b1101110011001000110100001 #
#504
b1101110011001000110100010 #
#505
b1101110011001000110100011 #
#506
b1101110011001000110100100 #
#507
b1101110011001000110100101 #
#508
b1101110011001000110100110 #
#509
b1101110011001000110100111 #
#510
b1101110011001000110101000 #
#511
b1101110011001000110101001 #
#512
b1101110011001000110101010 #
1=
#513
b1101110011001000110101011 #
#514
b1101110011001000110101100 #
#515
b1101110011001000110101101 #
#516
b1101110011001000110101110 #
#517
b1101110011001000110101111 #
#518
b1101110011001000110110000 #
#519
b1101110011001000110110001 #
#520
b1101110011001000110110010 #
#521
b1101110011001000110110011 #
#522
b1101110011001000110110100 #
#523
b1101110011001000110110101 #
#524
b1101110011001000110110110 #
#525
b1101110011001000110110111 #
#526
b1101110011001000110111000 #
#527
b1101110011001000110111001 #
#528
b1101110011001000110111010 #
#529
b1101110011001000110111011 #
#530
b1101110011001000110111100 #
#531
b1101110011001000110111101 #
#532
b1101110011001000110111110 #
#533
b1101110011001000110111111 #
#534
b1101110011001000111000000 #
#535
b1101110011001000111000001 #
#536
b1101110011001000111000010 #
#537
b1101110011001000111000011 #
#538
b1101110011001000111000100 #
#539
b1101110011001000111000101 #
#540
b1101110011001000111000110 #
#541
b1101110011001000111000111 #
#542
b1101110011001000111001000 #
#543
b1101110011001000111001001 #
#544
b1101110011001000111001010 #
#545
b1101110011001000111001011 #
#546
b1101110011001000111001100 #
#547
b1101110011001000111001101 #
#548
b1101110011001000111001110 #
#549
b1101110011001000111001111 #
#550
b1101110011001000111010000 #
#551
b1101110011001000111010001 #
#552
b1101110011001000111010010 #
#553
b1101110011001000111010011 #
#554
b1101110011001000111010100 #
#555
b1101110011001000111010101 #
#556
b1101110011001000111010110 #
#557
b1101110011001000111010111 #
#558
b1101110011001000111011000 #
#559
b1101110011001000111011001 #
#560
b1101110011001000111011010 #
#561
b1101110011001000111011011 #
#562
b1101110011001000111011100 #
#563
b1101110011001000111011101 #
#564
b1101110011001000111011110 #
#565
b1101110011001000111011111 #
#566
b1101110011001000111100000 #
#567
b1101110011001000111100001 #
#568
b1101110011001000111100010 #
#569
b1101110011001000111100011 #
#570
b1101110011001000111100100 #
#571
b1101110011001000111100101 #
#572
b1101110011001000111100110 #
#573
b1101110011001000111100111 #
#574
b1101110011001000111101000 #
#575
b1101110011001000111101001 #
#576
b1101110011001000111101010 #
#577
b1101110011001000111101011 #
#578
b1101110011001000111101100 #
#579
b1101110011001000111101101 #
#580
b1101110011001000111101110 #
#581
b1101110011001000111101111 #
#582
b1101110011001000111110000 #
#583
b1101110011001000111110001 #
#584
b1101110011001000111110010 #
#585
b1101110011001000111110011 #
#586
b1101110011001000111110100 #
#587
b1101110011001000111110101 #
#588
b1101110011001000111110110 #
#589
b1101110011001000111110111 #
#590
b1101110011001000111111000 #
#591
b1101110011001000111111001 #
#592
b1101110011001000111111010 #
#593
b1101110011001000111111011 #
#594
b1101110011001000111111100 #
#595
b1101110011001000111111101 #
#596
b1101110011001000111111110 #
#597
b1101110011001000111111111 #
#598
b1101110011001001000000000 #
#599
b1101110011001001000000001 #
#600
b1101110011001001000000010 #
#601
b1101110011001001000000011 #
#602
b1101110011001001000000100 #
#603
b1101110011001001000000101 #
#604
b1101110011001001000000110 #
#605
b1101110011001001000000111 #
#606
b1101110011001001000001000 #
#607
b1101110011001001000001001 #
#608
b1101110011001001000001010 #
#609
b1101110011001001000001011 #
#610
b1101110011001001000001100 #
#611
b1101110011001001000001101 #
#612
b1101110011001001000001110 #
#613
b1101110011001001000001111 #
#614
b1101110011001001000010000 #
#615
b1101110011001001000010001 #
#616
b1101110011001001000010010 #
#617
b1101110011001001000010011 #
#618
b1101110011001001000010100 #
#619
b1101110011001001000010101 #
#620
b1101110011001001000010110 #
#621
b1101110011001001000010111 #
#622
b1101110011001001000011000 #
#623
b1101110011001001000011001 #
#624
b1101110011001001000011010 #
#625
b1101110011001001000011011 #
#626
b1101110011001001000011100 #
#627
b1101110011001001000011101 #
#628
b1101110011001001000011110 #
#629
b1101110011001001000011111 #
#630
b1101110011001001000100000 #
#631
b1101110011001001000100001 #
#632
b1101110011001001000100010 #
#633
b1101110011001001000100011 #
#634
b1101110011001001000100100 #
#635
b1101110011001001000100101 #
#636
b1101110011001001000100110 #
#637
b1101110011001001000100111 #
#638
b1101110011001001000101000 #
#639
b1101110011001001000101001 #
#640
b1101110011001001000101010 #
#641
b1101110011001001000101011 #
#642
b1101110011001001000101100 #
#643
b1101110011001001000101101 #
#644
b1101110011001001000101110 #
#645
b1101110011001001000101111 #
#646
b1101110011001001000110000 #
#647
b1101110011001001000110001 #
#648
b1101110011001001000110010 #
#649
b1101110011001001000110011 #
#650
b1101110011001001000110100 #
#651
b1101110011001001000110101 #
#652
b1101110011001001000110110 #
#653
b1101110011001001000110111 #
#654
b1101110011001001000111000 #
#655
b1101110011001001000111001 #
#656
b1101110011001001000111010 #
#657
b1101110011001001000111011 #
#658
b1101110011001001000111100 #
#659
b1101110011001001000111101 #
#660
b1101110011001001000111110 #
#661
b1101110011001001000111111 #
#662
b1101110011001001001000000 #
#663
b1101110011001001001000001 #
#664
b1101110011001001001000010 #
#665
b1101110011001001001000011 #
#666
b1101110011001001001000100 #
#667
b1101110011001001001000101 #
#668
b1101110011001001001000110 #
#669
b1101110011001001001000111 #
#670
b1101110011001001001001000 #
#671
b1101110011001001001001001 #
#672
b1101110011001001001001010 #
#673
b1101110011001001001001011 #
#674
b1101110011001001001001100 #
#675
b1101110011001001001001101 #
#676
b1101110011001001001001110 #
#677
b1101110011001001001001111 #
#678
b1101110011001001001010000 #
#679
b1101110011001001001010001 #
#680
b1101110011001001001010010 #
#681
b1101110011001001001010011 #
#682
b1101110011001001001010100 #
#683
b1101110011001001001010101 #
#684
b1101110011001001001010110 #
#685
b1101110011001001001010111 #
#686
b1101110011001001001011000 #
#687
b1101110011001001001011001 #
#688
b1101110011001001001011010 #
#689
b1101110011001001001011011 #
#690
b1101110011001001001011100 #
#691
b1101110011001001001011101 #
#692
b1101110011001001001011110 #
#693
b1101110011001001001011111 #
#694
b1101110011001001001100000 #
#695
b1101110011001001001100001 #
#696
b1101110011001001001100010 #
#697
b1101110011001001001100011 #
#698
b1101110011001001001100100 #
#699
b1101110011001001001100101 #
#700
b1101110011001001001100110 #
#701
b1101110011001001001100111 #
#702
b1101110011001001001101000 #
#703
b1101110011001001001101001 #
#704
b1101110011001001001101010 #
#705
b1101110011001001001101011 #
#706
b1101110011001001001101100 #
#707
b1101110011001001001101101 #
#708
b1101110011001001001101110 #
#709
b1101110011001001001101111 #
#710
b1101110011001001001110000 #
#711
b1101110011001001001110001 #
#712
b1101110011001001001110010 #
#713
b1101110011001001001110011 #
#714
b1101110011001001001110100 #
#715
b1101110011001001001110101 #
#716
b1101110011001001001110110 #
#717
b1101110011001001001110111 #
#718
b1101110011001001001111000 #
#719
b1101110011001001001111001 #
#720
b1101110011001001001111010 #
#721
b1101110011001001001111011 #
#722
b1101110011001001001111100 #
#723
b1101110011001001001111101 #
#724
b1101110011001001001111110 #
#725
b1101110011001001001111111 #
#726
b1101110011001001010000000 #
#727
b1101110011001001010000001 #
#728
b1101110011001001010000010 #
#729
b1101110011001001010000011 #
#730
b1101110011001001010000100 #
#731
b1101110011001001010000101 #
#732
b1101110011001001010000110 #
#733
b1101110011001001010000111 #
#734
b1101110011001001010001000 #
#735
b1101110011001001010001001 #
#736
b1101110011001001010001010 #
#737
b1101110011001001010001011 #
#738
b1101110011001001010001100 #
#739
b1101110011001001010001101 #
#740
b1101110011001001010001110 #
#741
b1101110011001001010001111 #
#742
b1101110011001001010010000 #
#743
b1101110011001001010010001 #
#744
b1101110011001001010010010 #
#745
b1101110011001001010010011 #
#746
b1101110011001001010010100 #
#747
b1101110011001001010010101 #
#748
b1101110011001001010010110 #
#749
b1101110011001001010010111 #
#750
b1101110011001001010011000 #
#751
b1101110011001001010011001 #
#752
b1101110011001001010011010 #
#753
b1101110011001001010011011 #
#754
b1101110011001001010011100 #
#755
b1101110011001001010011101 #
#756
b1101110011001001010011110 #
#757
b1101110011001001010011111 #
#758
b1101110011001001010100000 #
#759
b1101110011001001010100001 #
#760
b1101110011001001010100010 #
#761
b1101110011001001010100011 #
#762
b1101110011001001010100100 #
#763
b1101110011001001010100101 #
#764
b1101110011001001010100110 #
#765
b1101110011001001010100111 #
#766
b1101110011001001010101000 #
#767
b1101110011001001010101001 #
#768
b1101110011001001010101010 #
#769
b1101110011001001010101011 #
#770
b1101110011001001010101100 #
#771
b1101110011001001010101101 #
#772
b1101110011001001010101110 #
#773
b1101110011001001010101111 #
#774
b1101110011001001010110000 #
#775
b1101110011001001010110001 #
#776
b1101110011001001010110010 #
#777
b1101110011001001010110011 #
#778
b1101110011001001010110100 #
#779
b1101110011001001010110101 #
#780
b1101110011001001010110110 #
#781
b1101110011001001010110111 #
#782
b1101110011001001010111000 #
#783
b1101110011001001010111001 #
#784
b1101110011001001010111010 #
#785
b1101110011001001010111011 #
#786
b1101110011001001010111100 #
#787
b1101110011001001010111101 #
#788
b1101110011001001010111110 #
#789
b1101110011001001010111111 #
#790
b1101110011001001011000000 #
#791
b1101110011001001011000001 #
#792
b1101110011001001011000010 #
#793
b1101110011001001011000011 #
#794
b1101110011001001011000100 #
#795
b1101110011001001011000101 #
#796
b1101110011001001011000110 #
#797
b1101110011001001011000111 #
#798
b1101110011001001011001000 #
#799
b1101110011001001011001001 #
#800
b1101110011001001011001010 #
#801
b1101110011001001011001011 #
#802
b1101110011001001011001100 #
#803
b1101110011001001011001101 #
#804
b1101110011001001011001110 #
#805
b1101110011001001011001111 #
#806
b1101110011001001011010000 #
#807
b1101110011001001011010001 #
#808
b1101110011001001011010010 #
#809
b1101110011001001011010011 #
#810
b1101110011001001011010100 #
#811
b1101110011001001011010101 #
#812
b1101110011001001011010110 #
#813
b1101110011001001011010111 #
#814
b1101110011001001011011000 #
#815
b1101110011001001011011001 #
#816
b1101110011001001011011010 #
#817
b1101110011001001011011011 #
#818
b1101110011001001011011100 #
#819
b1101110011001001011011101 #
#820
b1101110011001001011011110 #
#821
b1101110011001001011011111 #
#822
b1101110011001001011100000 #
#823
b1101110011001001011100001 #
#824
b1101110011001001011100010 #
#825
b1101110011001001011100011 #
#826
b1101110011001001011100100 #
#827
b1101110011001001011100101 #
#828
b1101110011001001011100110 #
#829
b1101110011001001011100111 #
#830
b1101110011001001011101000 #
#831
b1101110011001001011101001 #
#832
b1101110011001001011101010 #
#833
b1101110011001001011101011 #
#834
b1101110011001001011101100 #
#835
b1101110011001001011101101 #
#836
b1101110011001001011101110 #
#837
b1101110011001001011101111 #
#838
b1101110011001001011110000 #
#839
b1101110011001001011110001 #
#840
b1101110011001001011110010 #
#841
b1101110011001001011110011 #
#842
b1101110011001001011110100 #
#843
b1101110011001001011110101 #
#844
b1101110011001001011110110 #
#845
b1101110011001001011110111 #
#846
b1101110011001001011111000 #
#847
b1101110011001001011111001 #
#848
b1101110011001001011111010 #
#849
b1101110011001001011111011 #
#850
b1101110011001001011111100 #
#851
b1101110011001001011111101 #
#852
b1101110011001001011111110 #
#853
b1101110011001001011111111 #
#854
b1101110011001001100000000 #
#855
b1101110011001001100000001 #
#856
b1101110011001001100000010 #
#857
b1101110011001001100000011 #
#858
b1101110011001001100000100 #
#859
b1101110011001001100000101 #
#860
b1101110011001001100000110 #
#861
b1101110011001001100000111 #
#862
b1101110011001001100001000 #
#863
b1101110011001001100001001 #
#864
b1101110011001001100001010 #
#865
b1101110011001001100001011 #
#866
b1101110011001001100001100 #
#867
b1101110011001001100001101 #
#868
b1101110011001001100001110 #
#869
b1101110011001001100001111 #
#870
b1101110011001001100010000 #
#871
b1101110011001001100010001 #
#872
b1101110011001001100010010 #
#873
b1101110011001001100010011 #
#874
b1101110011001001100010100 #
#875
b1101110011001001100010101 #
#876
b1101110011001001100010110 #
#877
b1101110011001001100010111 #
#878
b1101110011001001100011000 #
#879
b1101110011001001100011001 #
#880
b1101110011001001100011010 #
#881
b1101110011001001100011011 #
#882
b1101110011001001100011100 #
#883
b1101110011001001100011101 #
#884
b1101110011001001100011110 #
#885
b1101110011001001100011111 #
#886
b1101110011001001100100000 #
#887
b1101110011001001100100001 #
#888
b1101110011001001100100010 #
#889
b1101110011001001100100011 #
#890
b1101110011001001100100100 #
#891
b1101110011001001100100101 #
#892
b1101110011001001100100110 #
#893
b1101110011001001100100111 #
#894
b1101110011001001100101000 #
#895
b1101110011001001100101001 #
#896
b1101110011001001100101010 #
#897
b1101110011001001100101011 #
#898
b1101110011001001100101100 #
#899
b1101110011001001100101101 #
#900
b1101110011001001100101110 #
#901
b1101110011001001100101111 #
#902
b1101110011001001100110000 #
#903
b1101110011001001100110001 #
#904
b1101110011001001100110010 #
#905
b1101110011001001100110011 #
#906
b1101110011001001100110100 #
#907
b1101110011001001100110101 #
#908
b1101110011001001100110110 #
#909
b1101110011001001100110111 #
#910
b1101110011001001100111000 #
#911
b1101110011001001100111001 #
#912
b1101110011001001100111010 #
#913
b1101110011001001100111011 #
#914
b1101110011001001100111100 #
#915
b1101110011001001100111101 #
#916
b1101110011001001100111110 #
#917
b1101110011001001100111111 #
#918
b1101110011001001101000000 #
#919
b1101110011001001101000001 #
#920
b1101110011001001101000010 #
