.Xil/Vivado-28464-LAPTOP-PFVE9KOE/hw_ila_data_1/zip_work/waveform.vcd
$date
        2025-May-05 00:56:16
$end
$version
        Vivado v2018.3 (64-bit)
$end
$timescale
        1ps
$end
$scope module dut $end
$var reg 1 " u_led_twinkle/led $end
$var reg 26 # u_led_twinkle/cnt [25:0] $end
$var reg 1 = _TRIGGER $end
$var reg 1 > _WINDOW $end
$var reg 1 ? _GAP $end
$upscope $end
$enddefinitions $end
#0
$dumpvars
0"
b1011111010111011001000001 #
0=
1>
0?
$end
#1
b1011111010111011001000010 #
#2
b1011111010111011001000011 #
#3
b1011111010111011001000100 #
#4
b1011111010111011001000101 #
#5
b1011111010111011001000110 #
#6
b1011111010111011001000111 #
#7
b1011111010111011001001000 #
#8
b1011111010111011001001001 #
#9
b1011111010111011001001010 #
#10
b1011111010111011001001011 #
#11
b1011111010111011001001100 #
#12
b1011111010111011001001101 #
#13
b1011111010111011001001110 #
#14
b1011111010111011001001111 #
#15
b1011111010111011001010000 #
#16
b1011111010111011001010001 #
#17
b1011111010111011001010010 #
#18
b1011111010111011001010011 #
#19
b1011111010111011001010100 #
#20
b1011111010111011001010101 #
#21
b1011111010111011001010110 #
#22
b1011111010111011001010111 #
#23
b1011111010111011001011000 #
#24
b1011111010111011001011001 #
#25
b1011111010111011001011010 #
#26
b1011111010111011001011011 #
#27
b1011111010111011001011100 #
#28
b1011111010111011001011101 #
#29
b1011111010111011001011110 #
#30
b1011111010111011001011111 #
#31
b1011111010111011001100000 #
#32
b1011111010111011001100001 #
#33
b1011111010111011001100010 #
#34
b1011111010111011001100011 #
#35
b1011111010111011001100100 #
#36
b1011111010111011001100101 #
#37
b1011111010111011001100110 #
#38
b1011111010111011001100111 #
#39
b1011111010111011001101000 #
#40
b1011111010111011001101001 #
#41
b1011111010111011001101010 #
#42
b1011111010111011001101011 #
#43
b1011111010111011001101100 #
#44
b1011111010111011001101101 #
#45
b1011111010111011001101110 #
#46
b1011111010111011001101111 #
#47
b1011111010111011001110000 #
#48
b1011111010111011001110001 #
#49
b1011111010111011001110010 #
#50
b1011111010111011001110011 #
#51
b1011111010111011001110100 #
#52
b1011111010111011001110101 #
#53
b1011111010111011001110110 #
#54
b1011111010111011001110111 #
#55
b1011111010111011001111000 #
#56
b1011111010111011001111001 #
#57
b1011111010111011001111010 #
#58
b1011111010111011001111011 #
#59
b1011111010111011001111100 #
#60
b1011111010111011001111101 #
#61
b1011111010111011001111110 #
#62
b1011111010111011001111111 #
#63
b1011111010111011010000000 #
#64
b1011111010111011010000001 #
#65
b1011111010111011010000010 #
#66
b1011111010111011010000011 #
#67
b1011111010111011010000100 #
#68
b1011111010111011010000101 #
#69
b1011111010111011010000110 #
#70
b1011111010111011010000111 #
#71
b1011111010111011010001000 #
#72
b1011111010111011010001001 #
#73
b1011111010111011010001010 #
#74
b1011111010111011010001011 #
#75
b1011111010111011010001100 #
#76
b1011111010111011010001101 #
#77
b1011111010111011010001110 #
#78
b1011111010111011010001111 #
#79
b1011111010111011010010000 #
#80
b1011111010111011010010001 #
#81
b1011111010111011010010010 #
#82
b1011111010111011010010011 #
#83
b1011111010111011010010100 #
#84
b1011111010111011010010101 #
#85
b1011111010111011010010110 #
#86
b1011111010111011010010111 #
#87
b1011111010111011010011000 #
#88
b1011111010111011010011001 #
#89
b1011111010111011010011010 #
#90
b1011111010111011010011011 #
#91
b1011111010111011010011100 #
#92
b1011111010111011010011101 #
#93
b1011111010111011010011110 #
#94
b1011111010111011010011111 #
#95
b1011111010111011010100000 #
#96
b1011111010111011010100001 #
#97
b1011111010111011010100010 #
#98
b1011111010111011010100011 #
#99
b1011111010111011010100100 #
#100
b1011111010111011010100101 #
#101
b1011111010111011010100110 #
#102
b1011111010111011010100111 #
#103
b1011111010111011010101000 #
#104
b1011111010111011010101001 #
#105
b1011111010111011010101010 #
#106
b1011111010111011010101011 #
#107
b1011111010111011010101100 #
#108
b1011111010111011010101101 #
#109
b1011111010111011010101110 #
#110
b1011111010111011010101111 #
#111
b1011111010111011010110000 #
#112
b1011111010111011010110001 #
#113
b1011111010111011010110010 #
#114
b1011111010111011010110011 #
#115
b1011111010111011010110100 #
#116
b1011111010111011010110101 #
#117
b1011111010111011010110110 #
#118
b1011111010111011010110111 #
#119
b1011111010111011010111000 #
#120
b1011111010111011010111001 #
#121
b1011111010111011010111010 #
#122
b1011111010111011010111011 #
#123
b1011111010111011010111100 #
#124
b1011111010111011010111101 #
#125
b1011111010111011010111110 #
#126
b1011111010111011010111111 #
#127
b1011111010111011011000000 #
#128
b1011111010111011011000001 #
#129
b1011111010111011011000010 #
#130
b1011111010111011011000011 #
#131
b1011111010111011011000100 #
#132
b1011111010111011011000101 #
#133
b1011111010111011011000110 #
#134
b1011111010111011011000111 #
#135
b1011111010111011011001000 #
#136
b1011111010111011011001001 #
#137
b1011111010111011011001010 #
#138
b1011111010111011011001011 #
#139
b1011111010111011011001100 #
#140
b1011111010111011011001101 #
#141
b1011111010111011011001110 #
#142
b1011111010111011011001111 #
#143
b1011111010111011011010000 #
#144
b1011111010111011011010001 #
#145
b1011111010111011011010010 #
#146
b1011111010111011011010011 #
#147
b1011111010111011011010100 #
#148
b1011111010111011011010101 #
#149
b1011111010111011011010110 #
#150
b1011111010111011011010111 #
#151
b1011111010111011011011000 #
#152
b1011111010111011011011001 #
#153
b1011111010111011011011010 #
#154
b1011111010111011011011011 #
#155
b1011111010111011011011100 #
#156
b1011111010111011011011101 #
#157
b1011111010111011011011110 #
#158
b1011111010111011011011111 #
#159
b1011111010111011011100000 #
#160
b1011111010111011011100001 #
#161
b1011111010111011011100010 #
#162
b1011111010111011011100011 #
#163
b1011111010111011011100100 #
#164
b1011111010111011011100101 #
#165
b1011111010111011011100110 #
#166
b1011111010111011011100111 #
#167
b1011111010111011011101000 #
#168
b1011111010111011011101001 #
#169
b1011111010111011011101010 #
#170
b1011111010111011011101011 #
#171
b1011111010111011011101100 #
#172
b1011111010111011011101101 #
#173
b1011111010111011011101110 #
#174
b1011111010111011011101111 #
#175
b1011111010111011011110000 #
#176
b1011111010111011011110001 #
#177
b1011111010111011011110010 #
#178
b1011111010111011011110011 #
#179
b1011111010111011011110100 #
#180
b1011111010111011011110101 #
#181
b1011111010111011011110110 #
#182
b1011111010111011011110111 #
#183
b1011111010111011011111000 #
#184
b1011111010111011011111001 #
#185
b1011111010111011011111010 #
#186
b1011111010111011011111011 #
#187
b1011111010111011011111100 #
#188
b1011111010111011011111101 #
#189
b1011111010111011011111110 #
#190
b1011111010111011011111111 #
#191
b1011111010111011100000000 #
#192
b1011111010111011100000001 #
#193
b1011111010111011100000010 #
#194
b1011111010111011100000011 #
#195
b1011111010111011100000100 #
#196
b1011111010111011100000101 #
#197
b1011111010111011100000110 #
#198
b1011111010111011100000111 #
#199
b1011111010111011100001000 #
#200
b1011111010111011100001001 #
#201
b1011111010111011100001010 #
#202
b1011111010111011100001011 #
#203
b1011111010111011100001100 #
#204
b1011111010111011100001101 #
#205
b1011111010111011100001110 #
#206
b1011111010111011100001111 #
#207
b1011111010111011100010000 #
#208
b1011111010111011100010001 #
#209
b1011111010111011100010010 #
#210
b1011111010111011100010011 #
#211
b1011111010111011100010100 #
#212
b1011111010111011100010101 #
#213
b1011111010111011100010110 #
#214
b1011111010111011100010111 #
#215
b1011111010111011100011000 #
#216
b1011111010111011100011001 #
#217
b1011111010111011100011010 #
#218
b1011111010111011100011011 #
#219
b1011111010111011100011100 #
#220
b1011111010111011100011101 #
#221
b1011111010111011100011110 #
#222
b1011111010111011100011111 #
#223
b1011111010111011100100000 #
#224
b1011111010111011100100001 #
#225
b1011111010111011100100010 #
#226
b1011111010111011100100011 #
#227
b1011111010111011100100100 #
#228
b1011111010111011100100101 #
#229
b1011111010111011100100110 #
#230
b1011111010111011100100111 #
#231
b1011111010111011100101000 #
#232
b1011111010111011100101001 #
#233
b1011111010111011100101010 #
#234
b1011111010111011100101011 #
#235
b1011111010111011100101100 #
#236
b1011111010111011100101101 #
#237
b1011111010111011100101110 #
#238
b1011111010111011100101111 #
#239
b1011111010111011100110000 #
#240
b1011111010111011100110001 #
#241
b1011111010111011100110010 #
#242
b1011111010111011100110011 #
#243
b1011111010111011100110100 #
#244
b1011111010111011100110101 #
#245
b1011111010111011100110110 #
#246
b1011111010111011100110111 #
#247
b1011111010111011100111000 #
#248
b1011111010111011100111001 #
#249
b1011111010111011100111010 #
#250
b1011111010111011100111011 #
#251
b1011111010111011100111100 #
#252
b1011111010111011100111101 #
#253
b1011111010111011100111110 #
#254
b1011111010111011100111111 #
#255
b1011111010111011101000000 #
#256
b1011111010111011101000001 #
#257
b1011111010111011101000010 #
#258
b1011111010111011101000011 #
#259
b1011111010111011101000100 #
#260
b1011111010111011101000101 #
#261
b1011111010111011101000110 #
#262
b1011111010111011101000111 #
#263
b1011111010111011101001000 #
#264
b1011111010111011101001001 #
#265
b1011111010111011101001010 #
#266
b1011111010111011101001011 #
#267
b1011111010111011101001100 #
#268
b1011111010111011101001101 #
#269
b1011111010111011101001110 #
#270
b1011111010111011101001111 #
#271
b1011111010111011101010000 #
#272
b1011111010111011101010001 #
#273
b1011111010111011101010010 #
#274
b1011111010111011101010011 #
#275
b1011111010111011101010100 #
#276
b1011111010111011101010101 #
#277
b1011111010111011101010110 #
#278
b1011111010111011101010111 #
#279
b1011111010111011101011000 #
#280
b1011111010111011101011001 #
#281
b1011111010111011101011010 #
#282
b1011111010111011101011011 #
#283
b1011111010111011101011100 #
#284
b1011111010111011101011101 #
#285
b1011111010111011101011110 #
#286
b1011111010111011101011111 #
#287
b1011111010111011101100000 #
#288
b1011111010111011101100001 #
#289
b1011111010111011101100010 #
#290
b1011111010111011101100011 #
#291
b1011111010111011101100100 #
#292
b1011111010111011101100101 #
#293
b1011111010111011101100110 #
#294
b1011111010111011101100111 #
#295
b1011111010111011101101000 #
#296
b1011111010111011101101001 #
#297
b1011111010111011101101010 #
#298
b1011111010111011101101011 #
#299
b1011111010111011101101100 #
#300
b1011111010111011101101101 #
#301
b1011111010111011101101110 #
#302
b1011111010111011101101111 #
#303
b1011111010111011101110000 #
#304
b1011111010111011101110001 #
#305
b1011111010111011101110010 #
#306
b1011111010111011101110011 #
#307
b1011111010111011101110100 #
#308
b1011111010111011101110101 #
#309
b1011111010111011101110110 #
#310
b1011111010111011101110111 #
#311
b1011111010111011101111000 #
#312
b1011111010111011101111001 #
#313
b1011111010111011101111010 #
#314
b1011111010111011101111011 #
#315
b1011111010111011101111100 #
#316
b1011111010111011101111101 #
#317
b1011111010111011101111110 #
#318
b1011111010111011101111111 #
#319
b1011111010111011110000000 #
#320
b1011111010111011110000001 #
#321
b1011111010111011110000010 #
#322
b1011111010111011110000011 #
#323
b1011111010111011110000100 #
#324
b1011111010111011110000101 #
#325
b1011111010111011110000110 #
#326
b1011111010111011110000111 #
#327
b1011111010111011110001000 #
#328
b1011111010111011110001001 #
#329
b1011111010111011110001010 #
#330
b1011111010111011110001011 #
#331
b1011111010111011110001100 #
#332
b1011111010111011110001101 #
#333
b1011111010111011110001110 #
#334
b1011111010111011110001111 #
#335
b1011111010111011110010000 #
#336
b1011111010111011110010001 #
#337
b1011111010111011110010010 #
#338
b1011111010111011110010011 #
#339
b1011111010111011110010100 #
#340
b1011111010111011110010101 #
#341
b1011111010111011110010110 #
#342
b1011111010111011110010111 #
#343
b1011111010111011110011000 #
#344
b1011111010111011110011001 #
#345
b1011111010111011110011010 #
#346
b1011111010111011110011011 #
#347
b1011111010111011110011100 #
#348
b1011111010111011110011101 #
#349
b1011111010111011110011110 #
#350
b1011111010111011110011111 #
#351
b1011111010111011110100000 #
#352
b1011111010111011110100001 #
#353
b1011111010111011110100010 #
#354
b1011111010111011110100011 #
#355
b1011111010111011110100100 #
#356
b1011111010111011110100101 #
#357
b1011111010111011110100110 #
#358
b1011111010111011110100111 #
#359
b1011111010111011110101000 #
#360
b1011111010111011110101001 #
#361
b1011111010111011110101010 #
#362
b1011111010111011110101011 #
#363
b1011111010111011110101100 #
#364
b1011111010111011110101101 #
#365
b1011111010111011110101110 #
#366
b1011111010111011110101111 #
#367
b1011111010111011110110000 #
#368
b1011111010111011110110001 #
#369
b1011111010111011110110010 #
#370
b1011111010111011110110011 #
#371
b1011111010111011110110100 #
#372
b1011111010111011110110101 #
#373
b1011111010111011110110110 #
#374
b1011111010111011110110111 #
#375
b1011111010111011110111000 #
#376
b1011111010111011110111001 #
#377
b1011111010111011110111010 #
#378
b1011111010111011110111011 #
#379
b1011111010111011110111100 #
#380
b1011111010111011110111101 #
#381
b1011111010111011110111110 #
#382
b1011111010111011110111111 #
#383
b1011111010111011111000000 #
#384
b1011111010111011111000001 #
#385
b1011111010111011111000010 #
#386
b1011111010111011111000011 #
#387
b1011111010111011111000100 #
#388
b1011111010111011111000101 #
#389
b1011111010111011111000110 #
#390
b1011111010111011111000111 #
#391
b1011111010111011111001000 #
#392
b1011111010111011111001001 #
#393
b1011111010111011111001010 #
#394
b1011111010111011111001011 #
#395
b1011111010111011111001100 #
#396
b1011111010111011111001101 #
#397
b1011111010111011111001110 #
#398
b1011111010111011111001111 #
#399
b1011111010111011111010000 #
#400
b1011111010111011111010001 #
#401
b1011111010111011111010010 #
#402
b1011111010111011111010011 #
#403
b1011111010111011111010100 #
#404
b1011111010111011111010101 #
#405
b1011111010111011111010110 #
#406
b1011111010111011111010111 #
#407
b1011111010111011111011000 #
#408
b1011111010111011111011001 #
#409
b1011111010111011111011010 #
#410
b1011111010111011111011011 #
#411
b1011111010111011111011100 #
#412
b1011111010111011111011101 #
#413
b1011111010111011111011110 #
#414
b1011111010111011111011111 #
#415
b1011111010111011111100000 #
#416
b1011111010111011111100001 #
#417
b1011111010111011111100010 #
#418
b1011111010111011111100011 #
#419
b1011111010111011111100100 #
#420
b1011111010111011111100101 #
#421
b1011111010111011111100110 #
#422
b1011111010111011111100111 #
#423
b1011111010111011111101000 #
#424
b1011111010111011111101001 #
#425
b1011111010111011111101010 #
#426
b1011111010111011111101011 #
#427
b1011111010111011111101100 #
#428
b1011111010111011111101101 #
#429
b1011111010111011111101110 #
#430
b1011111010111011111101111 #
#431
b1011111010111011111110000 #
#432
b1011111010111011111110001 #
#433
b1011111010111011111110010 #
#434
b1011111010111011111110011 #
#435
b1011111010111011111110100 #
#436
b1011111010111011111110101 #
#437
b1011111010111011111110110 #
#438
b1011111010111011111110111 #
#439
b1011111010111011111111000 #
#440
b1011111010111011111111001 #
#441
b1011111010111011111111010 #
#442
b1011111010111011111111011 #
#443
b1011111010111011111111100 #
#444
b1011111010111011111111101 #
#445
b1011111010111011111111110 #
#446
b1011111010111011111111111 #
#447
b1011111010111100000000000 #
#448
b1011111010111100000000001 #
#449
b1011111010111100000000010 #
#450
b1011111010111100000000011 #
#451
b1011111010111100000000100 #
#452
b1011111010111100000000101 #
#453
b1011111010111100000000110 #
#454
b1011111010111100000000111 #
#455
b1011111010111100000001000 #
#456
b1011111010111100000001001 #
#457
b1011111010111100000001010 #
#458
b1011111010111100000001011 #
#459
b1011111010111100000001100 #
#460
b1011111010111100000001101 #
#461
b1011111010111100000001110 #
#462
b1011111010111100000001111 #
#463
b1011111010111100000010000 #
#464
b1011111010111100000010001 #
#465
b1011111010111100000010010 #
#466
b1011111010111100000010011 #
#467
b1011111010111100000010100 #
#468
b1011111010111100000010101 #
#469
b1011111010111100000010110 #
#470
b1011111010111100000010111 #
#471
b1011111010111100000011000 #
#472
b1011111010111100000011001 #
#473
b1011111010111100000011010 #
#474
b1011111010111100000011011 #
#475
b1011111010111100000011100 #
#476
b1011111010111100000011101 #
#477
b1011111010111100000011110 #
#478
b1011111010111100000011111 #
#479
b1011111010111100000100000 #
#480
b1011111010111100000100001 #
#481
b1011111010111100000100010 #
#482
b1011111010111100000100011 #
#483
b1011111010111100000100100 #
#484
b1011111010111100000100101 #
#485
b1011111010111100000100110 #
#486
b1011111010111100000100111 #
#487
b1011111010111100000101000 #
#488
b1011111010111100000101001 #
#489
b1011111010111100000101010 #
#490
b1011111010111100000101011 #
#491
b1011111010111100000101100 #
#492
b1011111010111100000101101 #
#493
b1011111010111100000101110 #
#494
b1011111010111100000101111 #
#495
b1011111010111100000110000 #
#496
b1011111010111100000110001 #
#497
b1011111010111100000110010 #
#498
b1011111010111100000110011 #
#499
b1011111010111100000110100 #
#500
b1011111010111100000110101 #
#501
b1011111010111100000110110 #
#502
b1011111010111100000110111 #
#503
b1011111010111100000111000 #
#504
b1011111010111100000111001 #
#505
b1011111010111100000111010 #
#506
b1011111010111100000111011 #
#507
b1011111010111100000111100 #
#508
b1011111010111100000111101 #
#509
b1011111010111100000111110 #
#510
b1011111010111100000111111 #
#511
b1011111010111100001000000 #
#512
1"
b1011111010111100001000001 #
1=
#513
b1011111010111100001000010 #
#514
b1011111010111100001000011 #
#515
b1011111010111100001000100 #
#516
b1011111010111100001000101 #
#517
b1011111010111100001000110 #
#518
b1011111010111100001000111 #
#519
b1011111010111100001001000 #
#520
b1011111010111100001001001 #
#521
b1011111010111100001001010 #
#522
b1011111010111100001001011 #
#523
b1011111010111100001001100 #
#524
b1011111010111100001001101 #
#525
b1011111010111100001001110 #
#526
b1011111010111100001001111 #
#527
b1011111010111100001010000 #
#528
b1011111010111100001010001 #
#529
b1011111010111100001010010 #
#530
b1011111010111100001010011 #
#531
b1011111010111100001010100 #
#532
b1011111010111100001010101 #
#533
b1011111010111100001010110 #
#534
b1011111010111100001010111 #
#535
b1011111010111100001011000 #
#536
b1011111010111100001011001 #
#537
b1011111010111100001011010 #
#538
b1011111010111100001011011 #
#539
b1011111010111100001011100 #
#540
b1011111010111100001011101 #
#541
b1011111010111100001011110 #
#542
b1011111010111100001011111 #
#543
b1011111010111100001100000 #
#544
b1011111010111100001100001 #
#545
b1011111010111100001100010 #
#546
b1011111010111100001100011 #
#547
b1011111010111100001100100 #
#548
b1011111010111100001100101 #
#549
b1011111010111100001100110 #
#550
b1011111010111100001100111 #
#551
b1011111010111100001101000 #
#552
b1011111010111100001101001 #
#553
b1011111010111100001101010 #
#554
b1011111010111100001101011 #
#555
b1011111010111100001101100 #
#556
b1011111010111100001101101 #
#557
b1011111010111100001101110 #
#558
b1011111010111100001101111 #
#559
b1011111010111100001110000 #
#560
b1011111010111100001110001 #
#561
b1011111010111100001110010 #
#562
b1011111010111100001110011 #
#563
b1011111010111100001110100 #
#564
b1011111010111100001110101 #
#565
b1011111010111100001110110 #
#566
b1011111010111100001110111 #
#567
b1011111010111100001111000 #
#568
b1011111010111100001111001 #
#569
b1011111010111100001111010 #
#570
b1011111010111100001111011 #
#571
b1011111010111100001111100 #
#572
b1011111010111100001111101 #
#573
b1011111010111100001111110 #
#574
b1011111010111100001111111 #
#575
b1011111010111100010000000 #
#576
b1011111010111100010000001 #
#577
b1011111010111100010000010 #
#578
b1011111010111100010000011 #
#579
b1011111010111100010000100 #
#580
b1011111010111100010000101 #
#581
b1011111010111100010000110 #
#582
b1011111010111100010000111 #
#583
b1011111010111100010001000 #
#584
b1011111010111100010001001 #
#585
b1011111010111100010001010 #
#586
b1011111010111100010001011 #
#587
b1011111010111100010001100 #
#588
b1011111010111100010001101 #
#589
b1011111010111100010001110 #
#590
b1011111010111100010001111 #
#591
b1011111010111100010010000 #
#592
b1011111010111100010010001 #
#593
b1011111010111100010010010 #
#594
b1011111010111100010010011 #
#595
b1011111010111100010010100 #
#596
b1011111010111100010010101 #
#597
b1011111010111100010010110 #
#598
b1011111010111100010010111 #
#599
b1011111010111100010011000 #
#600
b1011111010111100010011001 #
#601
b1011111010111100010011010 #
#602
b1011111010111100010011011 #
#603
b1011111010111100010011100 #
#604
b1011111010111100010011101 #
#605
b1011111010111100010011110 #
#606
b1011111010111100010011111 #
#607
b1011111010111100010100000 #
#608
b1011111010111100010100001 #
#609
b1011111010111100010100010 #
#610
b1011111010111100010100011 #
#611
b1011111010111100010100100 #
#612
b1011111010111100010100101 #
#613
b1011111010111100010100110 #
#614
b1011111010111100010100111 #
#615
b1011111010111100010101000 #
#616
b1011111010111100010101001 #
#617
b1011111010111100010101010 #
#618
b1011111010111100010101011 #
#619
b1011111010111100010101100 #
#620
b1011111010111100010101101 #
#621
b1011111010111100010101110 #
#622
b1011111010111100010101111 #
#623
b1011111010111100010110000 #
#624
b1011111010111100010110001 #
#625
b1011111010111100010110010 #
#626
b1011111010111100010110011 #
#627
b1011111010111100010110100 #
#628
b1011111010111100010110101 #
#629
b1011111010111100010110110 #
#630
b1011111010111100010110111 #
#631
b1011111010111100010111000 #
#632
b1011111010111100010111001 #
#633
b1011111010111100010111010 #
#634
b1011111010111100010111011 #
#635
b1011111010111100010111100 #
#636
b1011111010111100010111101 #
#637
b1011111010111100010111110 #
#638
b1011111010111100010111111 #
#639
b1011111010111100011000000 #
#640
b1011111010111100011000001 #
#641
b1011111010111100011000010 #
#642
b1011111010111100011000011 #
#643
b1011111010111100011000100 #
#644
b1011111010111100011000101 #
#645
b1011111010111100011000110 #
#646
b1011111010111100011000111 #
#647
b1011111010111100011001000 #
#648
b1011111010111100011001001 #
#649
b1011111010111100011001010 #
#650
b1011111010111100011001011 #
#651
b1011111010111100011001100 #
#652
b1011111010111100011001101 #
#653
b1011111010111100011001110 #
#654
b1011111010111100011001111 #
#655
b1011111010111100011010000 #
#656
b1011111010111100011010001 #
#657
b1011111010111100011010010 #
#658
b1011111010111100011010011 #
#659
b1011111010111100011010100 #
#660
b1011111010111100011010101 #
#661
b1011111010111100011010110 #
#662
b1011111010111100011010111 #
#663
b1011111010111100011011000 #
#664
b1011111010111100011011001 #
#665
b1011111010111100011011010 #
#666
b1011111010111100011011011 #
#667
b1011111010111100011011100 #
#668
b1011111010111100011011101 #
#669
b1011111010111100011011110 #
#670
b1011111010111100011011111 #
#671
b1011111010111100011100000 #
#672
b1011111010111100011100001 #
#673
b1011111010111100011100010 #
#674
b1011111010111100011100011 #
#675
b1011111010111100011100100 #
#676
b1011111010111100011100101 #
#677
b1011111010111100011100110 #
#678
b1011111010111100011100111 #
#679
b1011111010111100011101000 #
#680
b1011111010111100011101001 #
#681
b1011111010111100011101010 #
#682
b1011111010111100011101011 #
#683
b1011111010111100011101100 #
#684
b1011111010111100011101101 #
#685
b1011111010111100011101110 #
#686
b1011111010111100011101111 #
#687
b1011111010111100011110000 #
#688
b1011111010111100011110001 #
#689
b1011111010111100011110010 #
#690
b1011111010111100011110011 #
#691
b1011111010111100011110100 #
#692
b1011111010111100011110101 #
#693
b1011111010111100011110110 #
#694
b1011111010111100011110111 #
#695
b1011111010111100011111000 #
#696
b1011111010111100011111001 #
#697
b1011111010111100011111010 #
#698
b1011111010111100011111011 #
#699
b1011111010111100011111100 #
#700
b1011111010111100011111101 #
#701
b1011111010111100011111110 #
#702
b1011111010111100011111111 #
#703
b1011111010111100100000000 #
#704
b1011111010111100100000001 #
#705
b1011111010111100100000010 #
#706
b1011111010111100100000011 #
#707
b1011111010111100100000100 #
#708
b1011111010111100100000101 #
#709
b1011111010111100100000110 #
#710
b1011111010111100100000111 #
#711
b1011111010111100100001000 #
#712
b1011111010111100100001001 #
#713
b1011111010111100100001010 #
#714
b1011111010111100100001011 #
#715
b1011111010111100100001100 #
#716
b1011111010111100100001101 #
#717
b1011111010111100100001110 #
#718
b1011111010111100100001111 #
#719
b1011111010111100100010000 #
#720
b1011111010111100100010001 #
#721
b1011111010111100100010010 #
#722
b1011111010111100100010011 #
#723
b1011111010111100100010100 #
#724
b1011111010111100100010101 #
#725
b1011111010111100100010110 #
#726
b1011111010111100100010111 #
#727
b1011111010111100100011000 #
#728
b1011111010111100100011001 #
#729
b1011111010111100100011010 #
#730
b1011111010111100100011011 #
#731
b1011111010111100100011100 #
#732
b1011111010111100100011101 #
#733
b1011111010111100100011110 #
#734
b1011111010111100100011111 #
#735
b1011111010111100100100000 #
#736
b1011111010111100100100001 #
#737
b1011111010111100100100010 #
#738
b1011111010111100100100011 #
#739
b1011111010111100100100100 #
#740
b1011111010111100100100101 #
#741
b1011111010111100100100110 #
#742
b1011111010111100100100111 #
#743
b1011111010111100100101000 #
#744
b1011111010111100100101001 #
#745
b1011111010111100100101010 #
#746
b1011111010111100100101011 #
#747
b1011111010111100100101100 #
#748
b1011111010111100100101101 #
#749
b1011111010111100100101110 #
#750
b1011111010111100100101111 #
#751
b1011111010111100100110000 #
#752
b1011111010111100100110001 #
#753
b1011111010111100100110010 #
#754
b1011111010111100100110011 #
#755
b1011111010111100100110100 #
#756
b1011111010111100100110101 #
#757
b1011111010111100100110110 #
#758
b1011111010111100100110111 #
#759
b1011111010111100100111000 #
#760
b1011111010111100100111001 #
#761
b1011111010111100100111010 #
#762
b1011111010111100100111011 #
#763
b1011111010111100100111100 #
#764
b1011111010111100100111101 #
#765
b1011111010111100100111110 #
#766
b1011111010111100100111111 #
#767
b1011111010111100101000000 #
#768
b1011111010111100101000001 #
#769
b1011111010111100101000010 #
#770
b1011111010111100101000011 #
#771
b1011111010111100101000100 #
#772
b1011111010111100101000101 #
#773
b1011111010111100101000110 #
#774
b1011111010111100101000111 #
#775
b1011111010111100101001000 #
#776
b1011111010111100101001001 #
#777
b1011111010111100101001010 #
#778
b1011111010111100101001011 #
#779
b1011111010111100101001100 #
#780
b1011111010111100101001101 #
#781
b1011111010111100101001110 #
#782
b1011111010111100101001111 #
#783
b1011111010111100101010000 #
#784
b1011111010111100101010001 #
#785
b1011111010111100101010010 #
#786
b1011111010111100101010011 #
#787
b1011111010111100101010100 #
#788
b1011111010111100101010101 #
#789
b1011111010111100101010110 #
#790
b1011111010111100101010111 #
#791
b1011111010111100101011000 #
#792
b1011111010111100101011001 #
#793
b1011111010111100101011010 #
#794
b1011111010111100101011011 #
#795
b1011111010111100101011100 #
#796
b1011111010111100101011101 #
#797
b1011111010111100101011110 #
#798
b1011111010111100101011111 #
#799
b1011111010111100101100000 #
#800
b1011111010111100101100001 #
#801
b1011111010111100101100010 #
#802
b1011111010111100101100011 #
#803
b1011111010111100101100100 #
#804
b1011111010111100101100101 #
#805
b1011111010111100101100110 #
#806
b1011111010111100101100111 #
#807
b1011111010111100101101000 #
#808
b1011111010111100101101001 #
#809
b1011111010111100101101010 #
#810
b1011111010111100101101011 #
#811
b1011111010111100101101100 #
#812
b1011111010111100101101101 #
#813
b1011111010111100101101110 #
#814
b1011111010111100101101111 #
#815
b1011111010111100101110000 #
#816
b1011111010111100101110001 #
#817
b1011111010111100101110010 #
#818
b1011111010111100101110011 #
#819
b1011111010111100101110100 #
#820
b1011111010111100101110101 #
#821
b1011111010111100101110110 #
#822
b1011111010111100101110111 #
#823
b1011111010111100101111000 #
#824
b1011111010111100101111001 #
#825
b1011111010111100101111010 #
#826
b1011111010111100101111011 #
#827
b1011111010111100101111100 #
#828
b1011111010111100101111101 #
#829
b1011111010111100101111110 #
#830
b1011111010111100101111111 #
#831
b1011111010111100110000000 #
#832
b1011111010111100110000001 #
#833
b1011111010111100110000010 #
#834
b1011111010111100110000011 #
#835
b1011111010111100110000100 #
#836
b1011111010111100110000101 #
#837
b1011111010111100110000110 #
#838
b1011111010111100110000111 #
#839
b1011111010111100110001000 #
#840
b1011111010111100110001001 #
#841
b1011111010111100110001010 #
#842
b1011111010111100110001011 #
#843
b1011111010111100110001100 #
#844
b1011111010111100110001101 #
#845
b1011111010111100110001110 #
#846
b1011111010111100110001111 #
#847
b1011111010111100110010000 #
#848
b1011111010111100110010001 #
#849
b1011111010111100110010010 #
#850
b1011111010111100110010011 #
#851
b1011111010111100110010100 #
#852
b1011111010111100110010101 #
#853
b1011111010111100110010110 #
#854
b1011111010111100110010111 #
#855
b1011111010111100110011000 #
#856
b1011111010111100110011001 #
#857
b1011111010111100110011010 #
#858
b1011111010111100110011011 #
#859
b1011111010111100110011100 #
#860
b1011111010111100110011101 #
#861
b1011111010111100110011110 #
#862
b1011111010111100110011111 #
#863
b1011111010111100110100000 #
#864
b1011111010111100110100001 #
#865
b1011111010111100110100010 #
#866
b1011111010111100110100011 #
#867
b1011111010111100110100100 #
#868
b1011111010111100110100101 #
#869
b1011111010111100110100110 #
#870
b1011111010111100110100111 #
#871
b1011111010111100110101000 #
#872
b1011111010111100110101001 #
#873
b1011111010111100110101010 #
#874
b1011111010111100110101011 #
#875
b1011111010111100110101100 #
#876
b1011111010111100110101101 #
#877
b1011111010111100110101110 #
#878
b1011111010111100110101111 #
#879
b1011111010111100110110000 #
#880
b1011111010111100110110001 #
#881
b1011111010111100110110010 #
#882
b1011111010111100110110011 #
#883
b1011111010111100110110100 #
#884
b1011111010111100110110101 #
#885
b1011111010111100110110110 #
#886
b1011111010111100110110111 #
#887
b1011111010111100110111000 #
#888
b1011111010111100110111001 #
#889
b1011111010111100110111010 #
#890
b1011111010111100110111011 #
#891
b1011111010111100110111100 #
#892
b1011111010111100110111101 #
#893
b1011111010111100110111110 #
#894
b1011111010111100110111111 #
#895
b1011111010111100111000000 #
#896
b1011111010111100111000001 #
#897
b1011111010111100111000010 #
#898
b1011111010111100111000011 #
#899
b1011111010111100111000100 #
#900
b1011111010111100111000101 #
#901
b1011111010111100111000110 #
#902
b1011111010111100111000111 #
#903
b1011111010111100111001000 #
#904
b1011111010111100111001001 #
#905
b1011111010111100111001010 #
#906
b1011111010111100111001011 #
#907
b1011111010111100111001100 #
#908
b1011111010111100111001101 #
#909
b1011111010111100111001110 #
#910
b1011111010111100111001111 #
#911
b1011111010111100111010000 #
#912
b1011111010111100111010001 #
#913
b1011111010111100111010010 #
#914
b1011111010111100111010011 #
#915
b1011111010111100111010100 #
#916
b1011111010111100111010101 #
#917
b1011111010111100111010110 #
#918
b1011111010111100111010111 #
#919
b1011111010111100111011000 #
#920
b1011111010111100111011001 #
