.Xil/Vivado-28464-LAPTOP-PFVE9KOE/hw_ila_data_1/zip_work/waveform.vcd
$date
        2025-May-05 03:58:11
$end
$version
        Vivado v2018.3 (64-bit)
$end
$timescale
        1ps
$end
$scope module dut $end
$var reg 1 " u_led_twinkle/led $end
$var reg 26 # u_led_twinkle/cnt [25:0] $end
$var reg 1 = _TRIGGER $end
$var reg 1 > _WINDOW $end
$var reg 1 ? _GAP $end
$upscope $end
$enddefinitions $end
#0
$dumpvars
1"
b1110010001011011110000000 #
0=
1>
0?
$end
#1
b1110010001011011110000001 #
#2
b1110010001011011110000010 #
#3
b1110010001011011110000011 #
#4
b1110010001011011110000100 #
#5
b1110010001011011110000101 #
#6
b1110010001011011110000110 #
#7
b1110010001011011110000111 #
#8
b1110010001011011110001000 #
#9
b1110010001011011110001001 #
#10
b1110010001011011110001010 #
#11
b1110010001011011110001011 #
#12
b1110010001011011110001100 #
#13
b1110010001011011110001101 #
#14
b1110010001011011110001110 #
#15
b1110010001011011110001111 #
#16
b1110010001011011110010000 #
#17
b1110010001011011110010001 #
#18
b1110010001011011110010010 #
#19
b1110010001011011110010011 #
#20
b1110010001011011110010100 #
#21
b1110010001011011110010101 #
#22
b1110010001011011110010110 #
#23
b1110010001011011110010111 #
#24
b1110010001011011110011000 #
#25
b1110010001011011110011001 #
#26
b1110010001011011110011010 #
#27
b1110010001011011110011011 #
#28
b1110010001011011110011100 #
#29
b1110010001011011110011101 #
#30
b1110010001011011110011110 #
#31
b1110010001011011110011111 #
#32
b1110010001011011110100000 #
#33
b1110010001011011110100001 #
#34
b1110010001011011110100010 #
#35
b1110010001011011110100011 #
#36
b1110010001011011110100100 #
#37
b1110010001011011110100101 #
#38
b1110010001011011110100110 #
#39
b1110010001011011110100111 #
#40
b1110010001011011110101000 #
#41
b1110010001011011110101001 #
#42
b1110010001011011110101010 #
#43
b1110010001011011110101011 #
#44
b1110010001011011110101100 #
#45
b1110010001011011110101101 #
#46
b1110010001011011110101110 #
#47
b1110010001011011110101111 #
#48
b1110010001011011110110000 #
#49
b1110010001011011110110001 #
#50
b1110010001011011110110010 #
#51
b1110010001011011110110011 #
#52
b1110010001011011110110100 #
#53
b1110010001011011110110101 #
#54
b1110010001011011110110110 #
#55
b1110010001011011110110111 #
#56
b1110010001011011110111000 #
#57
b1110010001011011110111001 #
#58
b1110010001011011110111010 #
#59
b1110010001011011110111011 #
#60
b1110010001011011110111100 #
#61
b1110010001011011110111101 #
#62
b1110010001011011110111110 #
#63
b1110010001011011110111111 #
#64
b1110010001011011111000000 #
#65
b1110010001011011111000001 #
#66
b1110010001011011111000010 #
#67
b1110010001011011111000011 #
#68
b1110010001011011111000100 #
#69
b1110010001011011111000101 #
#70
b1110010001011011111000110 #
#71
b1110010001011011111000111 #
#72
b1110010001011011111001000 #
#73
b1110010001011011111001001 #
#74
b1110010001011011111001010 #
#75
b1110010001011011111001011 #
#76
b1110010001011011111001100 #
#77
b1110010001011011111001101 #
#78
b1110010001011011111001110 #
#79
b1110010001011011111001111 #
#80
b1110010001011011111010000 #
#81
b1110010001011011111010001 #
#82
b1110010001011011111010010 #
#83
b1110010001011011111010011 #
#84
b1110010001011011111010100 #
#85
b1110010001011011111010101 #
#86
b1110010001011011111010110 #
#87
b1110010001011011111010111 #
#88
b1110010001011011111011000 #
#89
b1110010001011011111011001 #
#90
b1110010001011011111011010 #
#91
b1110010001011011111011011 #
#92
b1110010001011011111011100 #
#93
b1110010001011011111011101 #
#94
b1110010001011011111011110 #
#95
b1110010001011011111011111 #
#96
b1110010001011011111100000 #
#97
b1110010001011011111100001 #
#98
b1110010001011011111100010 #
#99
b1110010001011011111100011 #
#100
b1110010001011011111100100 #
#101
b1110010001011011111100101 #
#102
b1110010001011011111100110 #
#103
b1110010001011011111100111 #
#104
b1110010001011011111101000 #
#105
b1110010001011011111101001 #
#106
b1110010001011011111101010 #
#107
b1110010001011011111101011 #
#108
b1110010001011011111101100 #
#109
b1110010001011011111101101 #
#110
b1110010001011011111101110 #
#111
b1110010001011011111101111 #
#112
b1110010001011011111110000 #
#113
b1110010001011011111110001 #
#114
b1110010001011011111110010 #
#115
b1110010001011011111110011 #
#116
b1110010001011011111110100 #
#117
b1110010001011011111110101 #
#118
b1110010001011011111110110 #
#119
b1110010001011011111110111 #
#120
b1110010001011011111111000 #
#121
b1110010001011011111111001 #
#122
b1110010001011011111111010 #
#123
b1110010001011011111111011 #
#124
b1110010001011011111111100 #
#125
b1110010001011011111111101 #
#126
b1110010001011011111111110 #
#127
b1110010001011011111111111 #
#128
b1110010001011100000000000 #
#129
b1110010001011100000000001 #
#130
b1110010001011100000000010 #
#131
b1110010001011100000000011 #
#132
b1110010001011100000000100 #
#133
b1110010001011100000000101 #
#134
b1110010001011100000000110 #
#135
b1110010001011100000000111 #
#136
b1110010001011100000001000 #
#137
b1110010001011100000001001 #
#138
b1110010001011100000001010 #
#139
b1110010001011100000001011 #
#140
b1110010001011100000001100 #
#141
b1110010001011100000001101 #
#142
b1110010001011100000001110 #
#143
b1110010001011100000001111 #
#144
b1110010001011100000010000 #
#145
b1110010001011100000010001 #
#146
b1110010001011100000010010 #
#147
b1110010001011100000010011 #
#148
b1110010001011100000010100 #
#149
b1110010001011100000010101 #
#150
b1110010001011100000010110 #
#151
b1110010001011100000010111 #
#152
b1110010001011100000011000 #
#153
b1110010001011100000011001 #
#154
b1110010001011100000011010 #
#155
b1110010001011100000011011 #
#156
b1110010001011100000011100 #
#157
b1110010001011100000011101 #
#158
b1110010001011100000011110 #
#159
b1110010001011100000011111 #
#160
b1110010001011100000100000 #
#161
b1110010001011100000100001 #
#162
b1110010001011100000100010 #
#163
b1110010001011100000100011 #
#164
b1110010001011100000100100 #
#165
b1110010001011100000100101 #
#166
b1110010001011100000100110 #
#167
b1110010001011100000100111 #
#168
b1110010001011100000101000 #
#169
b1110010001011100000101001 #
#170
b1110010001011100000101010 #
#171
b1110010001011100000101011 #
#172
b1110010001011100000101100 #
#173
b1110010001011100000101101 #
#174
b1110010001011100000101110 #
#175
b1110010001011100000101111 #
#176
b1110010001011100000110000 #
#177
b1110010001011100000110001 #
#178
b1110010001011100000110010 #
#179
b1110010001011100000110011 #
#180
b1110010001011100000110100 #
#181
b1110010001011100000110101 #
#182
b1110010001011100000110110 #
#183
b1110010001011100000110111 #
#184
b1110010001011100000111000 #
#185
b1110010001011100000111001 #
#186
b1110010001011100000111010 #
#187
b1110010001011100000111011 #
#188
b1110010001011100000111100 #
#189
b1110010001011100000111101 #
#190
b1110010001011100000111110 #
#191
b1110010001011100000111111 #
#192
b1110010001011100001000000 #
#193
b1110010001011100001000001 #
#194
b1110010001011100001000010 #
#195
b1110010001011100001000011 #
#196
b1110010001011100001000100 #
#197
b1110010001011100001000101 #
#198
b1110010001011100001000110 #
#199
b1110010001011100001000111 #
#200
b1110010001011100001001000 #
#201
b1110010001011100001001001 #
#202
b1110010001011100001001010 #
#203
b1110010001011100001001011 #
#204
b1110010001011100001001100 #
#205
b1110010001011100001001101 #
#206
b1110010001011100001001110 #
#207
b1110010001011100001001111 #
#208
b1110010001011100001010000 #
#209
b1110010001011100001010001 #
#210
b1110010001011100001010010 #
#211
b1110010001011100001010011 #
#212
b1110010001011100001010100 #
#213
b1110010001011100001010101 #
#214
b1110010001011100001010110 #
#215
b1110010001011100001010111 #
#216
b1110010001011100001011000 #
#217
b1110010001011100001011001 #
#218
b1110010001011100001011010 #
#219
b1110010001011100001011011 #
#220
b1110010001011100001011100 #
#221
b1110010001011100001011101 #
#222
b1110010001011100001011110 #
#223
b1110010001011100001011111 #
#224
b1110010001011100001100000 #
#225
b1110010001011100001100001 #
#226
b1110010001011100001100010 #
#227
b1110010001011100001100011 #
#228
b1110010001011100001100100 #
#229
b1110010001011100001100101 #
#230
b1110010001011100001100110 #
#231
b1110010001011100001100111 #
#232
b1110010001011100001101000 #
#233
b1110010001011100001101001 #
#234
b1110010001011100001101010 #
#235
b1110010001011100001101011 #
#236
b1110010001011100001101100 #
#237
b1110010001011100001101101 #
#238
b1110010001011100001101110 #
#239
b1110010001011100001101111 #
#240
b1110010001011100001110000 #
#241
b1110010001011100001110001 #
#242
b1110010001011100001110010 #
#243
b1110010001011100001110011 #
#244
b1110010001011100001110100 #
#245
b1110010001011100001110101 #
#246
b1110010001011100001110110 #
#247
b1110010001011100001110111 #
#248
b1110010001011100001111000 #
#249
b1110010001011100001111001 #
#250
b1110010001011100001111010 #
#251
b1110010001011100001111011 #
#252
b1110010001011100001111100 #
#253
b1110010001011100001111101 #
#254
b1110010001011100001111110 #
#255
b1110010001011100001111111 #
#256
b1110010001011100010000000 #
#257
b1110010001011100010000001 #
#258
b1110010001011100010000010 #
#259
b1110010001011100010000011 #
#260
b1110010001011100010000100 #
#261
b1110010001011100010000101 #
#262
b1110010001011100010000110 #
#263
b1110010001011100010000111 #
#264
b1110010001011100010001000 #
#265
b1110010001011100010001001 #
#266
b1110010001011100010001010 #
#267
b1110010001011100010001011 #
#268
b1110010001011100010001100 #
#269
b1110010001011100010001101 #
#270
b1110010001011100010001110 #
#271
b1110010001011100010001111 #
#272
b1110010001011100010010000 #
#273
b1110010001011100010010001 #
#274
b1110010001011100010010010 #
#275
b1110010001011100010010011 #
#276
b1110010001011100010010100 #
#277
b1110010001011100010010101 #
#278
b1110010001011100010010110 #
#279
b1110010001011100010010111 #
#280
b1110010001011100010011000 #
#281
b1110010001011100010011001 #
#282
b1110010001011100010011010 #
#283
b1110010001011100010011011 #
#284
b1110010001011100010011100 #
#285
b1110010001011100010011101 #
#286
b1110010001011100010011110 #
#287
b1110010001011100010011111 #
#288
b1110010001011100010100000 #
#289
b1110010001011100010100001 #
#290
b1110010001011100010100010 #
#291
b1110010001011100010100011 #
#292
b1110010001011100010100100 #
#293
b1110010001011100010100101 #
#294
b1110010001011100010100110 #
#295
b1110010001011100010100111 #
#296
b1110010001011100010101000 #
#297
b1110010001011100010101001 #
#298
b1110010001011100010101010 #
#299
b1110010001011100010101011 #
#300
b1110010001011100010101100 #
#301
b1110010001011100010101101 #
#302
b1110010001011100010101110 #
#303
b1110010001011100010101111 #
#304
b1110010001011100010110000 #
#305
b1110010001011100010110001 #
#306
b1110010001011100010110010 #
#307
b1110010001011100010110011 #
#308
b1110010001011100010110100 #
#309
b1110010001011100010110101 #
#310
b1110010001011100010110110 #
#311
b1110010001011100010110111 #
#312
b1110010001011100010111000 #
#313
b1110010001011100010111001 #
#314
b1110010001011100010111010 #
#315
b1110010001011100010111011 #
#316
b1110010001011100010111100 #
#317
b1110010001011100010111101 #
#318
b1110010001011100010111110 #
#319
b1110010001011100010111111 #
#320
b1110010001011100011000000 #
#321
b1110010001011100011000001 #
#322
b1110010001011100011000010 #
#323
b1110010001011100011000011 #
#324
b1110010001011100011000100 #
#325
b1110010001011100011000101 #
#326
b1110010001011100011000110 #
#327
b1110010001011100011000111 #
#328
b1110010001011100011001000 #
#329
b1110010001011100011001001 #
#330
b1110010001011100011001010 #
#331
b1110010001011100011001011 #
#332
b1110010001011100011001100 #
#333
b1110010001011100011001101 #
#334
b1110010001011100011001110 #
#335
b1110010001011100011001111 #
#336
b1110010001011100011010000 #
#337
b1110010001011100011010001 #
#338
b1110010001011100011010010 #
#339
b1110010001011100011010011 #
#340
b1110010001011100011010100 #
#341
b1110010001011100011010101 #
#342
b1110010001011100011010110 #
#343
b1110010001011100011010111 #
#344
b1110010001011100011011000 #
#345
b1110010001011100011011001 #
#346
b1110010001011100011011010 #
#347
b1110010001011100011011011 #
#348
b1110010001011100011011100 #
#349
b1110010001011100011011101 #
#350
b1110010001011100011011110 #
#351
b1110010001011100011011111 #
#352
b1110010001011100011100000 #
#353
b1110010001011100011100001 #
#354
b1110010001011100011100010 #
#355
b1110010001011100011100011 #
#356
b1110010001011100011100100 #
#357
b1110010001011100011100101 #
#358
b1110010001011100011100110 #
#359
b1110010001011100011100111 #
#360
b1110010001011100011101000 #
#361
b1110010001011100011101001 #
#362
b1110010001011100011101010 #
#363
b1110010001011100011101011 #
#364
b1110010001011100011101100 #
#365
b1110010001011100011101101 #
#366
b1110010001011100011101110 #
#367
b1110010001011100011101111 #
#368
b1110010001011100011110000 #
#369
b1110010001011100011110001 #
#370
b1110010001011100011110010 #
#371
b1110010001011100011110011 #
#372
b1110010001011100011110100 #
#373
b1110010001011100011110101 #
#374
b1110010001011100011110110 #
#375
b1110010001011100011110111 #
#376
b1110010001011100011111000 #
#377
b1110010001011100011111001 #
#378
b1110010001011100011111010 #
#379
b1110010001011100011111011 #
#380
b1110010001011100011111100 #
#381
b1110010001011100011111101 #
#382
b1110010001011100011111110 #
#383
b1110010001011100011111111 #
#384
b1110010001011100100000000 #
#385
b1110010001011100100000001 #
#386
b1110010001011100100000010 #
#387
b1110010001011100100000011 #
#388
b1110010001011100100000100 #
#389
b1110010001011100100000101 #
#390
b1110010001011100100000110 #
#391
b1110010001011100100000111 #
#392
b1110010001011100100001000 #
#393
b1110010001011100100001001 #
#394
b1110010001011100100001010 #
#395
b1110010001011100100001011 #
#396
b1110010001011100100001100 #
#397
b1110010001011100100001101 #
#398
b1110010001011100100001110 #
#399
b1110010001011100100001111 #
#400
b1110010001011100100010000 #
#401
b1110010001011100100010001 #
#402
b1110010001011100100010010 #
#403
b1110010001011100100010011 #
#404
b1110010001011100100010100 #
#405
b1110010001011100100010101 #
#406
b1110010001011100100010110 #
#407
b1110010001011100100010111 #
#408
b1110010001011100100011000 #
#409
b1110010001011100100011001 #
#410
b1110010001011100100011010 #
#411
b1110010001011100100011011 #
#412
b1110010001011100100011100 #
#413
b1110010001011100100011101 #
#414
b1110010001011100100011110 #
#415
b1110010001011100100011111 #
#416
b1110010001011100100100000 #
#417
b1110010001011100100100001 #
#418
b1110010001011100100100010 #
#419
b1110010001011100100100011 #
#420
b1110010001011100100100100 #
#421
b1110010001011100100100101 #
#422
b1110010001011100100100110 #
#423
b1110010001011100100100111 #
#424
b1110010001011100100101000 #
#425
b1110010001011100100101001 #
#426
b1110010001011100100101010 #
#427
b1110010001011100100101011 #
#428
b1110010001011100100101100 #
#429
b1110010001011100100101101 #
#430
b1110010001011100100101110 #
#431
b1110010001011100100101111 #
#432
b1110010001011100100110000 #
#433
b1110010001011100100110001 #
#434
b1110010001011100100110010 #
#435
b1110010001011100100110011 #
#436
b1110010001011100100110100 #
#437
b1110010001011100100110101 #
#438
b1110010001011100100110110 #
#439
b1110010001011100100110111 #
#440
b1110010001011100100111000 #
#441
b1110010001011100100111001 #
#442
b1110010001011100100111010 #
#443
b1110010001011100100111011 #
#444
b1110010001011100100111100 #
#445
b1110010001011100100111101 #
#446
b1110010001011100100111110 #
#447
b1110010001011100100111111 #
#448
b1110010001011100101000000 #
#449
b1110010001011100101000001 #
#450
b1110010001011100101000010 #
#451
b1110010001011100101000011 #
#452
b1110010001011100101000100 #
#453
b1110010001011100101000101 #
#454
b1110010001011100101000110 #
#455
b1110010001011100101000111 #
#456
b1110010001011100101001000 #
#457
b1110010001011100101001001 #
#458
b1110010001011100101001010 #
#459
b1110010001011100101001011 #
#460
b1110010001011100101001100 #
#461
b1110010001011100101001101 #
#462
b1110010001011100101001110 #
#463
b1110010001011100101001111 #
#464
b1110010001011100101010000 #
#465
b1110010001011100101010001 #
#466
b1110010001011100101010010 #
#467
b1110010001011100101010011 #
#468
b1110010001011100101010100 #
#469
b1110010001011100101010101 #
#470
b1110010001011100101010110 #
#471
b1110010001011100101010111 #
#472
b1110010001011100101011000 #
#473
b1110010001011100101011001 #
#474
b1110010001011100101011010 #
#475
b1110010001011100101011011 #
#476
b1110010001011100101011100 #
#477
b1110010001011100101011101 #
#478
b1110010001011100101011110 #
#479
b1110010001011100101011111 #
#480
b1110010001011100101100000 #
#481
b1110010001011100101100001 #
#482
b1110010001011100101100010 #
#483
b1110010001011100101100011 #
#484
b1110010001011100101100100 #
#485
b1110010001011100101100101 #
#486
b1110010001011100101100110 #
#487
b1110010001011100101100111 #
#488
b1110010001011100101101000 #
#489
b1110010001011100101101001 #
#490
b1110010001011100101101010 #
#491
b1110010001011100101101011 #
#492
b1110010001011100101101100 #
#493
b1110010001011100101101101 #
#494
b1110010001011100101101110 #
#495
b1110010001011100101101111 #
#496
b1110010001011100101110000 #
#497
b1110010001011100101110001 #
#498
b1110010001011100101110010 #
#499
b1110010001011100101110011 #
#500
b1110010001011100101110100 #
#501
b1110010001011100101110101 #
#502
b1110010001011100101110110 #
#503
b1110010001011100101110111 #
#504
b1110010001011100101111000 #
#505
b1110010001011100101111001 #
#506
b1110010001011100101111010 #
#507
b1110010001011100101111011 #
#508
b1110010001011100101111100 #
#509
b1110010001011100101111101 #
#510
b1110010001011100101111110 #
#511
b1110010001011100101111111 #
#512
b1110010001011100110000000 #
1=
#513
b1110010001011100110000001 #
#514
b1110010001011100110000010 #
#515
b1110010001011100110000011 #
#516
b1110010001011100110000100 #
#517
b1110010001011100110000101 #
#518
b1110010001011100110000110 #
#519
b1110010001011100110000111 #
#520
b1110010001011100110001000 #
#521
b1110010001011100110001001 #
#522
b1110010001011100110001010 #
#523
b1110010001011100110001011 #
#524
b1110010001011100110001100 #
#525
b1110010001011100110001101 #
#526
b1110010001011100110001110 #
#527
b1110010001011100110001111 #
#528
b1110010001011100110010000 #
#529
b1110010001011100110010001 #
#530
b1110010001011100110010010 #
#531
b1110010001011100110010011 #
#532
b1110010001011100110010100 #
#533
b1110010001011100110010101 #
#534
b1110010001011100110010110 #
#535
b1110010001011100110010111 #
#536
b1110010001011100110011000 #
#537
b1110010001011100110011001 #
#538
b1110010001011100110011010 #
#539
b1110010001011100110011011 #
#540
b1110010001011100110011100 #
#541
b1110010001011100110011101 #
#542
b1110010001011100110011110 #
#543
b1110010001011100110011111 #
#544
b1110010001011100110100000 #
#545
b1110010001011100110100001 #
#546
b1110010001011100110100010 #
#547
b1110010001011100110100011 #
#548
b1110010001011100110100100 #
#549
b1110010001011100110100101 #
#550
b1110010001011100110100110 #
#551
b1110010001011100110100111 #
#552
b1110010001011100110101000 #
#553
b1110010001011100110101001 #
#554
b1110010001011100110101010 #
#555
b1110010001011100110101011 #
#556
b1110010001011100110101100 #
#557
b1110010001011100110101101 #
#558
b1110010001011100110101110 #
#559
b1110010001011100110101111 #
#560
b1110010001011100110110000 #
#561
b1110010001011100110110001 #
#562
b1110010001011100110110010 #
#563
b1110010001011100110110011 #
#564
b1110010001011100110110100 #
#565
b1110010001011100110110101 #
#566
b1110010001011100110110110 #
#567
b1110010001011100110110111 #
#568
b1110010001011100110111000 #
#569
b1110010001011100110111001 #
#570
b1110010001011100110111010 #
#571
b1110010001011100110111011 #
#572
b1110010001011100110111100 #
#573
b1110010001011100110111101 #
#574
b1110010001011100110111110 #
#575
b1110010001011100110111111 #
#576
b1110010001011100111000000 #
#577
b1110010001011100111000001 #
#578
b1110010001011100111000010 #
#579
b1110010001011100111000011 #
#580
b1110010001011100111000100 #
#581
b1110010001011100111000101 #
#582
b1110010001011100111000110 #
#583
b1110010001011100111000111 #
#584
b1110010001011100111001000 #
#585
b1110010001011100111001001 #
#586
b1110010001011100111001010 #
#587
b1110010001011100111001011 #
#588
b1110010001011100111001100 #
#589
b1110010001011100111001101 #
#590
b1110010001011100111001110 #
#591
b1110010001011100111001111 #
#592
b1110010001011100111010000 #
#593
b1110010001011100111010001 #
#594
b1110010001011100111010010 #
#595
b1110010001011100111010011 #
#596
b1110010001011100111010100 #
#597
b1110010001011100111010101 #
#598
b1110010001011100111010110 #
#599
b1110010001011100111010111 #
#600
b1110010001011100111011000 #
#601
b1110010001011100111011001 #
#602
b1110010001011100111011010 #
#603
b1110010001011100111011011 #
#604
b1110010001011100111011100 #
#605
b1110010001011100111011101 #
#606
b1110010001011100111011110 #
#607
b1110010001011100111011111 #
#608
b1110010001011100111100000 #
#609
b1110010001011100111100001 #
#610
b1110010001011100111100010 #
#611
b1110010001011100111100011 #
#612
b1110010001011100111100100 #
#613
b1110010001011100111100101 #
#614
b1110010001011100111100110 #
#615
b1110010001011100111100111 #
#616
b1110010001011100111101000 #
#617
b1110010001011100111101001 #
#618
b1110010001011100111101010 #
#619
b1110010001011100111101011 #
#620
b1110010001011100111101100 #
#621
b1110010001011100111101101 #
#622
b1110010001011100111101110 #
#623
b1110010001011100111101111 #
#624
b1110010001011100111110000 #
#625
b1110010001011100111110001 #
#626
b1110010001011100111110010 #
#627
b1110010001011100111110011 #
#628
b1110010001011100111110100 #
#629
b1110010001011100111110101 #
#630
b1110010001011100111110110 #
#631
b1110010001011100111110111 #
#632
b1110010001011100111111000 #
#633
b1110010001011100111111001 #
#634
b1110010001011100111111010 #
#635
b1110010001011100111111011 #
#636
b1110010001011100111111100 #
#637
b1110010001011100111111101 #
#638
b1110010001011100111111110 #
#639
b1110010001011100111111111 #
#640
b1110010001011101000000000 #
#641
b1110010001011101000000001 #
#642
b1110010001011101000000010 #
#643
b1110010001011101000000011 #
#644
b1110010001011101000000100 #
#645
b1110010001011101000000101 #
#646
b1110010001011101000000110 #
#647
b1110010001011101000000111 #
#648
b1110010001011101000001000 #
#649
b1110010001011101000001001 #
#650
b1110010001011101000001010 #
#651
b1110010001011101000001011 #
#652
b1110010001011101000001100 #
#653
b1110010001011101000001101 #
#654
b1110010001011101000001110 #
#655
b1110010001011101000001111 #
#656
b1110010001011101000010000 #
#657
b1110010001011101000010001 #
#658
b1110010001011101000010010 #
#659
b1110010001011101000010011 #
#660
b1110010001011101000010100 #
#661
b1110010001011101000010101 #
#662
b1110010001011101000010110 #
#663
b1110010001011101000010111 #
#664
b1110010001011101000011000 #
#665
b1110010001011101000011001 #
#666
b1110010001011101000011010 #
#667
b1110010001011101000011011 #
#668
b1110010001011101000011100 #
#669
b1110010001011101000011101 #
#670
b1110010001011101000011110 #
#671
b1110010001011101000011111 #
#672
b1110010001011101000100000 #
#673
b1110010001011101000100001 #
#674
b1110010001011101000100010 #
#675
b1110010001011101000100011 #
#676
b1110010001011101000100100 #
#677
b1110010001011101000100101 #
#678
b1110010001011101000100110 #
#679
b1110010001011101000100111 #
#680
b1110010001011101000101000 #
#681
b1110010001011101000101001 #
#682
b1110010001011101000101010 #
#683
b1110010001011101000101011 #
#684
b1110010001011101000101100 #
#685
b1110010001011101000101101 #
#686
b1110010001011101000101110 #
#687
b1110010001011101000101111 #
#688
b1110010001011101000110000 #
#689
b1110010001011101000110001 #
#690
b1110010001011101000110010 #
#691
b1110010001011101000110011 #
#692
b1110010001011101000110100 #
#693
b1110010001011101000110101 #
#694
b1110010001011101000110110 #
#695
b1110010001011101000110111 #
#696
b1110010001011101000111000 #
#697
b1110010001011101000111001 #
#698
b1110010001011101000111010 #
#699
b1110010001011101000111011 #
#700
b1110010001011101000111100 #
#701
b1110010001011101000111101 #
#702
b1110010001011101000111110 #
#703
b1110010001011101000111111 #
#704
b1110010001011101001000000 #
#705
b1110010001011101001000001 #
#706
b1110010001011101001000010 #
#707
b1110010001011101001000011 #
#708
b1110010001011101001000100 #
#709
b1110010001011101001000101 #
#710
b1110010001011101001000110 #
#711
b1110010001011101001000111 #
#712
b1110010001011101001001000 #
#713
b1110010001011101001001001 #
#714
b1110010001011101001001010 #
#715
b1110010001011101001001011 #
#716
b1110010001011101001001100 #
#717
b1110010001011101001001101 #
#718
b1110010001011101001001110 #
#719
b1110010001011101001001111 #
#720
b1110010001011101001010000 #
#721
b1110010001011101001010001 #
#722
b1110010001011101001010010 #
#723
b1110010001011101001010011 #
#724
b1110010001011101001010100 #
#725
b1110010001011101001010101 #
#726
b1110010001011101001010110 #
#727
b1110010001011101001010111 #
#728
b1110010001011101001011000 #
#729
b1110010001011101001011001 #
#730
b1110010001011101001011010 #
#731
b1110010001011101001011011 #
#732
b1110010001011101001011100 #
#733
b1110010001011101001011101 #
#734
b1110010001011101001011110 #
#735
b1110010001011101001011111 #
#736
b1110010001011101001100000 #
#737
b1110010001011101001100001 #
#738
b1110010001011101001100010 #
#739
b1110010001011101001100011 #
#740
b1110010001011101001100100 #
#741
b1110010001011101001100101 #
#742
b1110010001011101001100110 #
#743
b1110010001011101001100111 #
#744
b1110010001011101001101000 #
#745
b1110010001011101001101001 #
#746
b1110010001011101001101010 #
#747
b1110010001011101001101011 #
#748
b1110010001011101001101100 #
#749
b1110010001011101001101101 #
#750
b1110010001011101001101110 #
#751
b1110010001011101001101111 #
#752
b1110010001011101001110000 #
#753
b1110010001011101001110001 #
#754
b1110010001011101001110010 #
#755
b1110010001011101001110011 #
#756
b1110010001011101001110100 #
#757
b1110010001011101001110101 #
#758
b1110010001011101001110110 #
#759
b1110010001011101001110111 #
#760
b1110010001011101001111000 #
#761
b1110010001011101001111001 #
#762
b1110010001011101001111010 #
#763
b1110010001011101001111011 #
#764
b1110010001011101001111100 #
#765
b1110010001011101001111101 #
#766
b1110010001011101001111110 #
#767
b1110010001011101001111111 #
#768
b1110010001011101010000000 #
#769
b1110010001011101010000001 #
#770
b1110010001011101010000010 #
#771
b1110010001011101010000011 #
#772
b1110010001011101010000100 #
#773
b1110010001011101010000101 #
#774
b1110010001011101010000110 #
#775
b1110010001011101010000111 #
#776
b1110010001011101010001000 #
#777
b1110010001011101010001001 #
#778
b1110010001011101010001010 #
#779
b1110010001011101010001011 #
#780
b1110010001011101010001100 #
#781
b1110010001011101010001101 #
#782
b1110010001011101010001110 #
#783
b1110010001011101010001111 #
#784
b1110010001011101010010000 #
#785
b1110010001011101010010001 #
#786
b1110010001011101010010010 #
#787
b1110010001011101010010011 #
#788
b1110010001011101010010100 #
#789
b1110010001011101010010101 #
#790
b1110010001011101010010110 #
#791
b1110010001011101010010111 #
#792
b1110010001011101010011000 #
#793
b1110010001011101010011001 #
#794
b1110010001011101010011010 #
#795
b1110010001011101010011011 #
#796
b1110010001011101010011100 #
#797
b1110010001011101010011101 #
#798
b1110010001011101010011110 #
#799
b1110010001011101010011111 #
#800
b1110010001011101010100000 #
#801
b1110010001011101010100001 #
#802
b1110010001011101010100010 #
#803
b1110010001011101010100011 #
#804
b1110010001011101010100100 #
#805
b1110010001011101010100101 #
#806
b1110010001011101010100110 #
#807
b1110010001011101010100111 #
#808
b1110010001011101010101000 #
#809
b1110010001011101010101001 #
#810
b1110010001011101010101010 #
#811
b1110010001011101010101011 #
#812
b1110010001011101010101100 #
#813
b1110010001011101010101101 #
#814
b1110010001011101010101110 #
#815
b1110010001011101010101111 #
#816
b1110010001011101010110000 #
#817
b1110010001011101010110001 #
#818
b1110010001011101010110010 #
#819
b1110010001011101010110011 #
#820
b1110010001011101010110100 #
#821
b1110010001011101010110101 #
#822
b1110010001011101010110110 #
#823
b1110010001011101010110111 #
#824
b1110010001011101010111000 #
#825
b1110010001011101010111001 #
#826
b1110010001011101010111010 #
#827
b1110010001011101010111011 #
#828
b1110010001011101010111100 #
#829
b1110010001011101010111101 #
#830
b1110010001011101010111110 #
#831
b1110010001011101010111111 #
#832
b1110010001011101011000000 #
#833
b1110010001011101011000001 #
#834
b1110010001011101011000010 #
#835
b1110010001011101011000011 #
#836
b1110010001011101011000100 #
#837
b1110010001011101011000101 #
#838
b1110010001011101011000110 #
#839
b1110010001011101011000111 #
#840
b1110010001011101011001000 #
#841
b1110010001011101011001001 #
#842
b1110010001011101011001010 #
#843
b1110010001011101011001011 #
#844
b1110010001011101011001100 #
#845
b1110010001011101011001101 #
#846
b1110010001011101011001110 #
#847
b1110010001011101011001111 #
#848
b1110010001011101011010000 #
#849
b1110010001011101011010001 #
#850
b1110010001011101011010010 #
#851
b1110010001011101011010011 #
#852
b1110010001011101011010100 #
#853
b1110010001011101011010101 #
#854
b1110010001011101011010110 #
#855
b1110010001011101011010111 #
#856
b1110010001011101011011000 #
#857
b1110010001011101011011001 #
#858
b1110010001011101011011010 #
#859
b1110010001011101011011011 #
#860
b1110010001011101011011100 #
#861
b1110010001011101011011101 #
#862
b1110010001011101011011110 #
#863
b1110010001011101011011111 #
#864
b1110010001011101011100000 #
#865
b1110010001011101011100001 #
#866
b1110010001011101011100010 #
#867
b1110010001011101011100011 #
#868
b1110010001011101011100100 #
#869
b1110010001011101011100101 #
#870
b1110010001011101011100110 #
#871
b1110010001011101011100111 #
#872
b1110010001011101011101000 #
#873
b1110010001011101011101001 #
#874
b1110010001011101011101010 #
#875
b1110010001011101011101011 #
#876
b1110010001011101011101100 #
#877
b1110010001011101011101101 #
#878
b1110010001011101011101110 #
#879
b1110010001011101011101111 #
#880
b1110010001011101011110000 #
#881
b1110010001011101011110001 #
#882
b1110010001011101011110010 #
#883
b1110010001011101011110011 #
#884
b1110010001011101011110100 #
#885
b1110010001011101011110101 #
#886
b1110010001011101011110110 #
#887
b1110010001011101011110111 #
#888
b1110010001011101011111000 #
#889
b1110010001011101011111001 #
#890
b1110010001011101011111010 #
#891
b1110010001011101011111011 #
#892
b1110010001011101011111100 #
#893
b1110010001011101011111101 #
#894
b1110010001011101011111110 #
#895
b1110010001011101011111111 #
#896
b1110010001011101100000000 #
#897
b1110010001011101100000001 #
#898
b1110010001011101100000010 #
#899
b1110010001011101100000011 #
#900
b1110010001011101100000100 #
#901
b1110010001011101100000101 #
#902
b1110010001011101100000110 #
#903
b1110010001011101100000111 #
#904
b1110010001011101100001000 #
#905
b1110010001011101100001001 #
#906
b1110010001011101100001010 #
#907
b1110010001011101100001011 #
#908
b1110010001011101100001100 #
#909
b1110010001011101100001101 #
#910
b1110010001011101100001110 #
#911
b1110010001011101100001111 #
#912
b1110010001011101100010000 #
#913
b1110010001011101100010001 #
#914
b1110010001011101100010010 #
#915
b1110010001011101100010011 #
#916
b1110010001011101100010100 #
#917
b1110010001011101100010101 #
#918
b1110010001011101100010110 #
#919
b1110010001011101100010111 #
#920
b1110010001011101100011000 #
